reichsreform = {
	member = {
		build_cost = -0.02
		technology_cost = -0.02
	}
	emperor = {
		build_cost = -0.02
		technology_cost = -0.02
		prestige = 1
	}
	on_effect = {
		imperial_ban_allowed = yes
	}
	off_effect = {
		imperial_ban_allowed = no
	}
}

reichsregiment = {
	member = {
		global_unrest = -1
	}
	emperor = {
		diplomatic_reputation = 1
		diplomats = 1
	}
}

hofgericht = { 
	member = {
		prestige = 0.1
		legitimacy = 0.2
	}
	emperor = {
		prestige = 0.5
		legitimacy = 1
		core_creation = -0.10
	}
}

gemeinerpfennig = {
	member = {
		diplomatic_reputation = 1
	}
	emperor = {
		global_tax_modifier = 0.15
	}
}

landfriede = {
	member = {
		stability_cost_modifier = -0.10
	}
	emperor = {
		stability_cost_modifier = 0.10
	}
	on_effect = {
		internal_hre_cb = no
	}
	off_effect = {
		internal_hre_cb = yes
	}
}

erbkaisertum = {
	member = {
		legitimacy = 0.3
	}
	emperor = {
		imperial_authority = 0.25
	}
	on_effect = {
		hre_inheritable = yes
	}
	off_effect = {
		hre_inheritable = no
	}
}

privilegia_de_non_appelando = {

	war = yes			#this may cause a war, so special AI check needed, to not lose many.
	
	member = {
		diplomatic_reputation = 1
	}
	emperor = {
		diplomatic_reputation = -1
	}
	on_effect = {
	
		emperor = {
			country_event = { id = holyromanempire.9073 tooltip = vassalize_empire2 }
		}
		hidden_effect = {
			every_country = {
				limit = {
					is_part_of_hre = yes
					is_emperor = no
					num_of_cities = 1
					NOT = { vassal_of = ROOT }
				}
				country_event = { id = holyromanempire.9074 }
			}
		}
	}	
}

renovatio = {
	on_effect = {
		emperor = {
			country_event = { id = holyromanempire.9075 tooltip = renovatio_effect }
		}
	}
}
