
trade_company_india = {
	color = { 135 104 85 }
	
	provinces = {
		420 421 448 451 503 504 505 507 508 509 510 511 512 514 515 516 517 518 519 520 521 522 523 524
		525 526 527 528 529 530 531 532 533 534 535 536 537 538 539 540 541 542 543 544 545 546 547 548
		549 550 552 553 554 555 556 557 558 559 560 561 562 563 564 565 566 567 568 569 570 571 572 573
		574 575 576 577 578 580 1101 1248 1520 1587 1588 2112 2113 2114 2115 2116 2163 2210 2211 2212
		2226 2243 2244 2245 2336 2337 2554 2555 2556 2557 2558 2568 2569 2570 2584 2627 2628 2629 2630
		2631 2632 2672 2673 2674 2675 2676 2677 2678 2679 2680 2681 2682 2683 2684 2685 2686 2687 2688
		2689 2690 2691 2692 2693 2694 2695 2696 2697 2698 2699 2700 2701 2702 2703 2704 2705 2706 2707
		2708 2709 2710 2711 2712 2713 2714 2715 2716 2717 2718 2719 2720 2721 2722 2723 3098 3100
		3101 3102 3103 3104 3105 3106 3107 3108 3109 3110 3111 3112 3113 3114 3115 3116 3117 3118 3119
		3120 3121 3122 3123 3124 3125 3126 3127 3128 3129 3130 3131 3132 3133 3134 3135 3136 3137 3138
		3139 3140 3141 3142 3143 3144 3145 3146 3147 3148 3149 3150 3151 3152 3153 3154 3155 3156 3157
		3158 3159 3160 3161 3162 3163 3164 3165 3166 3167 3168 3169 3170 3171 3172 3173 3174 3175 3176
		3177 3178 3179 3180 3181 3182 3183 3184 3185 3186 3187 3188 3189 3190 3191 3192 3193 3194 3195
		3196 3198 3199 3200 3201 3202 3203 3204 3205 3206 3238 3704 3834 4056 4078 4079 4124 4125 4219
	}
	
	# Generic
	names = {
		name = "TRADE_COMPANY_INDIA_Root_GetName"
	}
	names = {
		name = "TRADE_COMPANY_INDIA_India_Trade_Company"
	}
}

trade_company_indonesia = {
	color = { 0 240 0 }
	
	provinces = {
		617 618 619 620 621 622 623 624 625 626 627 628 629 630 631 632 633 634 635 636 
		637 638 639 640 641 642 643 644 645 646 647 648 649 651 652 653 654 655 656 657 
		658 659 714 716 738 773 777 907 1042 1234 1237 1245 1642 2088 2089 2090 2091 2092 2093 2094 2095 
		2096 2097 2098 2099 2100 2101 2102 2103 2104 2105 2106 2107 2108 2109 2110 2111 
		2213 2214 2215 2216 2217 2430 2431 2432 2433 2434 2511 2513 2525 2585 2586 2589 3339 3340 3341 3342 3343 3344 3345
		3911 3912 3913 3914 3915 3916 3917 3918 3919 3920 3921 3922 3923 3924 3925 3926 
		3927 3928 3929 3940 3941 4042 4044 4045 4047 4048 4081
	}

	names = {
		name = "TRADE_COMPANY_INDONESIA_Root_GetName"
	}
	names = {
		name = "TRADE_COMPANY_INDONESIA_Indonesia_Trade_Company"
	}
}

trade_company_indochina = {
	color = { 84 152 93 }
	
	provinces = {
		352 407 408	579 581 582 583 584 585 586 587 588 589 590 591 592 593 594 595 596 597
		598 599 600 601 602 603 604 605 606 607 608 609 610 611 612 613 614 615 616 2306 2317
		2318 2319 2320 2321 2322 2323 2324 2325 2397 2420 2421 2422 2668 2670 2425 2426 2427
		2428 2429 2424 2669 2729 2730 2731 2732 2753 2423 2727 2728 2417 2733 2734 2393 2394
		2395 2396 2419 2418 2735 2736 2737 2738 2739 2817 2818 2819 2820 2821 2822 2823 2824
		2825 2826 2827 2828 2829 2830 3197 3214 3215 3216 3217 3218 3219 3220 3221 3222 3223
		3224 3225 3226 3227 3228 3229 3230 3231 3232 3233 3234 3235 3236 3237 3313 3314 3315 
		3239 3903 3904 3905 3906 3907 3908 3909 3910 3930 3931 3932 3933 3934 3935 3936 3937 
		3938 4043 4046 4049 4050 4211 4212 4213 4214 4215 4216 4217 4218
	}
	
	# Specific
	# Generic
	names = {
		name = "TRADE_COMPANY_INDOCHINA_Root_GetName"
	}
	names = {
		name = "TRADE_COMPANY_INDOCHINA_Indochina_Trade_Company"
	}
}

trade_company_china = {
	color = { 221 198 14 }
	
	provinces = {
		660 661 662 663 664 665 666 667 668 669 670 671 672 673 674 675 676 677 678 679 680 
		681 682 683 684 685 686 687 688 689 690 691 692 693 694 695 696 697 698 699 700 701 
		702 703 704 705 706 707 708 709 710 711 712 713 715 717 718 719 720 721 722 723 724 
		725 726 727 728 729 730 731 732 733 734 735 736 737  1041 1046 1047 1048 1049 1050 
		1052 1053 1057 1058 1061 1068 2117 2121 2233 2246 2247 2248 2249 2250 2251 2252 2253 
		2254 2255 2256 2257 2265 2266 2267 2268 2272 2273 2276 2303 2304 2305 2328 
		2605 2606 2607 2613 2326 1172 2492 2491 2560 2468 2471 2476 2467 2485 
		2148 2472 2149 2150 2147 2144 1089 2493 2145 2494 2141 2142 2490 2484 2480 2478 2477 
		2488 2462 2486 2162 2463 2170 2797 1337 2793 2510 1143 1043 2085 2082 1760 2073 2086 
		2464 2078 1758 2083 1759 2800 2801 2802 2803 2804 2805 2806 2125 3240 3241 3242 3243 
		3244 3245 3246 3247 3248 3249 3250 3251 3252 3253 3254 3255 3256 3257 3258 3259 3260 
		3261 3262 3263 3264 3265 3266 3267 3268 3269 3270 3271 3272 3273 3274 3275 3939 4031 
		4032 4033 4035 4036 4037 4038 4039
	}
	
	# Specific
	# Generic
	names = {
		name = "TRADE_COMPANY_CHINA_Root_GetName"
	}
	names = {
		name = "TRADE_COMPANY_CHINA_China_Trade_Company"
	}
}

trade_company_japan = {
	color = { 101  5  37 }
	
	provinces = {
		1012 1013 1014 1015 1016 1017 1018 1019 1020 1021
		1022 1023 1024 1025 1026 1027 1028 1029 1030 1031 1032 1033 2277 2278 2279 2280 2281 2282 2283
		2284 2285 2286 2287 2288 2289 2290 2291 2292 2293 2294 2295 2296 2297 2298 2299 2300
		2301 2302 2435 2744 2796 3943 3944 3945 3946 3947 3948 3949 3950 3951 3952 3953 3954 3955 3956 3957 3958 3959 3960 3961 3962 3963 3964 3965 3966 3967 3968 3969 3970 3971 3972 3973 3974
	}
	
	# Specific
	# Generic
	names = {
		name = "TRADE_COMPANY_JAPAN_Root_GetName"
	}
	names = {
		name = "TRADE_COMPANY_JAPAN_Japan_Trade_Company"
	}
}
