estate_nobility_disaster = {
	potential = {
		has_dlc = "The Cossacks"
		has_estate = estate_nobles
		estate_influence = {
			estate = estate_nobles
			influence = 60
		}
		NOT = {
			capital_scope = {
				province_group = india_charter
			}
		}
	}


	can_start = {
		has_any_disaster = no
		estate_influence = {
			estate = estate_nobles
			influence = 80
		}
	}
	
	can_stop = {
		NOT = {
			estate_influence = {
				estate = estate_nobles
				influence = 80
			}		
		}
	}
	
	progress = {
		modifier = {
			factor = 1
			estate_influence = {
				estate = estate_nobles
				influence = 80
			}
			hidden_trigger = {
				NOT = {
					estate_influence = {
						estate = estate_nobles
						influence = 85
					}			
				}			
			}
		}
		modifier = {
			factor = 2
			estate_influence = {
				estate = estate_nobles
				influence = 85
			}
			hidden_trigger = {
				NOT = {
					estate_influence = {
						estate = estate_nobles
						influence = 90
					}			
				}			
			}
		}
		modifier = {
			factor = 3
			estate_influence = {
				estate = estate_nobles
				influence = 90
			}
			hidden_trigger = {
				NOT = {
					estate_influence = {
						estate = estate_nobles
						influence = 95
					}			
				}			
			}
		}	
		modifier = {
			factor = 4
			estate_influence = {
				estate = estate_nobles
				influence = 95
			}
			hidden_trigger = {
				NOT = {
					estate_influence = {
						estate = estate_nobles
						influence = 100
					}			
				}			
			}
		}	
		modifier = {
			factor = 5
			estate_influence = {
				estate = estate_nobles
				influence = 100
			}
		}		
	}
	
	can_end = {
		custom_trigger_tooltip = {
			tooltip = EST_CRUSHED_NOBLES
			NOT = {
				has_country_flag = noble_estate_in_power
			}
		}
	}
	
	modifier = {
		global_tax_modifier = -0.25
		global_trade_power = -0.25
		trade_efficiency = -0.25
	}

	on_start = estate_disasters.1
	on_end = estate_disasters.2
	
	on_monthly = {
		random_events = { 
			1000 = 0
			10 = centralisation.99
		}
	}
}

