#Country Name: Please see filename.

graphical_culture = easterngfx

color = { 195  149  155 }

historical_idea_groups = {
	trade_ideas
	quantity_ideas
	expansion_ideas
	aristocracy_ideas
	exploration_ideas
	leadership_ideas
	naval_ideas
	spy_ideas
	economic_ideas
	administrative_ideas
}

historical_units = { #Russian group
	eastern_hospite_infantry
	eastern_druzhina_cavalry
	eastern_bandiera_infantry
	eastern_balkan_feudal_cavalry
	eastern_hand_gunner
	eastern_hussar_horse_archer_cavalry
	eastern_pischalniki_infantry
	eastern_cossack_cavalry
	eastern_streltsy_infantry
	eastern_light_cossack_cavalry
	eastern_soldaty_infantry
	eastern_pancerni_cavalry
	eastern_regular_infantry
	eastern_carabinier_cavalry
	eastern_line_infantry
	eastern_uhlan_cavalry
	eastern_mass_infantry
	eastern_columnar_infantry
	eastern_lancer_cavalry
	eastern_jominian_infantry
}

monarch_names = {
	"Mikhail #2" = 20
	"Aleksandr #1" = 20
	"Boris #0" = 20
	"Yuriy #0" = 20
	"Yaroslav #2" = 5
	"Dmitriy #1" = 5
	"Ivan #1" = 5
	"Konstantin #1" = 5
	"Svyatoslav #1" = 5
	"Akim #0" = 1
	"Anastas #0" = 1
	"Anton #0" = 1
	"Arseniy #0" = 1
	"Bogdan #0" = 1
	"Daniil #0" = 1
	"David #0" = 1
	"Ferapont #0" = 1
	"Fyodor #0" = 1
	"Isaak #0" = 1
	"Kirill #0" = 1
	"Lavrentiy #0" = 1
	"Lazar #0" = 1
	"Leonti #0" = 1
	"Luka #0" = 1
	"Makariy #0" = 1
	"Mefodiy #0" = 1
	"Milan #0" = 1
	"Mitrofan #0" = 1
	"Nazariy #0" = 1
	"Nestor #0" = 1
	"Nikolai #0" = 1
	"Nikon #0" = 1
	"Pyotr #0" = 1
	"Roman #0" = 1
	"Veniamin #0" = 1
	"Vlad #0" = 1
	"Vsevolod #0" = 1
	"Yaromir #0" = 1
	"Yevgeniy #0" = 1
	"Zinoviy #0" = 1

	"Martha #0" = -1
	"Sofia #0" = -1
	"Maria #0" = -1
	"Anastasia #0" = -1
	"Elena #0" = -1
	"Anna #0" = -1
	"Irina #0" = -1
	"Evdokia #0" = -1
	"Natalia #0" = -1
	"Praskovya #0" = -1
	"Alexandra #0" = -1
	"Olga #0" = -1
	"Lydia #0" = -1
#	"Lyudmila #0" = -1
	"Daria #0" = -1
	"Zinaida #0" = -1
	"Agrippina #0" = -1
	"Varvara #0" = -1
	"Svetlana #0" = -1
	"Agatha #0" = -1
}

leader_names = { 
	Dorogobushsky Kashinsky Mikulinsky Telyatevsky Kholmsky 
	Chernyatinsky Andomsky Beloselsky Vadbolsky Dyabrinsky 
	Kargolomsky Kemsky Sugorsky Ukhtomsky Sheleshpansky
}

ship_names = {
	Yaroslavich Volga Tvertsa Mikhail Dmitry
	Kashin Kholmsky Torzhok "Vyshniy Voloche"
	Zubtsov Toropets Rzev Startsa Valdai Brosno
}
