#Polish Events

#Special thanks to xxroxx for designing and scripting these!

#Events Added July 2015
# Przywilej cerekwicko-nieszawski

# Konstytucje piotrkowskie

# Przywilej toruński
country_event = {
	id = hee_POL.17
	title = hee_POL.17.t
	desc = hee_POL.17.d
	picture = COURT_eventPicture
	
	fire_only_once = yes
	
	trigger = {
		OR = {
			AND = {
				tag = POL
				NOT = { exists = PLC }
			}
			tag = PLC
		}
		is_year = 1520
		NOT = { is_year = 1550 }
		}
	
	mean_time_to_happen = {
		months = 240
	}
	
	option = {
		name = hee_POL.17.a # Enact
		add_stability_1 = yes
		add_mercantilism = 1025
		add_country_modifier = {
			name = pol_przywilej_torunski
			duration = -1
		}
	}
	option = {
		ai_chance = { 
			factor = 1
		}
		name = hee_POL.17.b # Refuse to enact
		subtract_stability_1 = yes
	}
}

# Statut karnkowskiego
country_event = {
	id = hee_POL.21
	title = hee_POL.21.t
	desc = hee_POL.21.d
	picture = COURT_eventPicture
	
	fire_only_once = yes
	
	trigger = {
		OR = {
			AND = {
				tag = POL
				NOT = { exists = PLC }
			}
			tag = PLC
		}
		owns = 2355
		is_year = 1560
		NOT = { is_year = 1600 }
	}

	mean_time_to_happen = {
		months = 120 
	}
	 
	option = {
		name = hee_POL.21.a # Sign
		add_dip_power = -150
		2355 = {
			add_province_modifier = {
				name = statut_karnkowskiego
				duration = -1
			}
		}
	}
	option = {
		name = hee_POL.21.b # It is unnecessary
	}
}
 