##################################
# MEIOU and Taxes - Removing Cores
##################################
remove_obsolete_cores_effect = {
		every_province = {
			limit = {
				is_core = BYZ
				NOT = { exists = BYZ }
			}
			remove_core = BYZ
		}
		every_province = {
			limit = {
				is_core = ENR
				NOT = { exists = ENR }
			}
			remove_core = ENR
		}
		every_province = {
			limit = {
				is_core = TEU
				NOT = { exists = TEU }
			}
			remove_core = TEU
		}
		every_province = {
			limit = {
				is_core = LVO
				NOT = { exists = LVO }
			}
			remove_core = LVO
		}
		every_province = {
			limit = {
				is_core = KNI
				NOT = { exists = KNI }
			}
			remove_core = KNI
		}
		every_province = {
			limit = {
				is_core = RSW
				NOT = { exists = RSW }
			}
			remove_core = RSW
		}
		every_province = {
			limit = {
				is_core = PKA
				exists = POM
				NOT = { exists = PKA }
			}
			remove_core = PKA
		}
		every_province = {
			limit = {
				is_core = PRW
				exists = POM
				NOT = { exists = PRW }
			}
			remove_core = PRW
		}
		every_province = {
			limit = {
				is_core = PSP
				exists = POM
				NOT = { exists = PSP }
			}
			remove_core = PSP
		}
		every_province = {
			limit = {
				is_core = PST
				exists = POM
				NOT = { exists = PST }
			}
			remove_core = PST
		}
		every_province = {
			limit = {
				is_core = PWO
				exists = POM
				NOT = { exists = PWO }
			}
			remove_core = PWO
		}
		every_province = {
			limit = {
				is_core = BAW
				exists = BAV
				NOT = { exists = BAW }
			}
			remove_core = BAW
		}
		every_province = {
			limit = {
				is_core = BAX
				exists = BAV
				NOT = { exists = BAX }
			}
			remove_core = BAX
		}
		every_province = {
			limit = {
				is_core = BAY
				exists = BAV
				NOT = { exists = BAY }
			}
			remove_core = BAY
		}
		every_province = {
			limit = {
				is_core = BAZ
				exists = BAV
				NOT = { exists = BAZ }
			}
			remove_core = BAZ
		}
		every_country = {			# can be removed in v2.0
			limit = { tag = DGL exists = yes }
			change_tag = TSL
		}
		every_province = {			# can be removed in v2.0
			limit = {
				is_core = DGL
				exists = TSL
				NOT = { exists = DGL }
			}
			add_core = TSL
			remove_core = DGL
		}
}

######################################################################						
# MEIOU and Taxes - Restoring initial cultures of culture primary tags						
######################################################################						
reboot_primary_culture_effect = {
		every_country = { limit = { tag = POM exists = no NOT = { primary_culture = pommeranian } } change_primary_culture = pommeranian }
		every_country = { limit = { tag = HAN exists = no NOT = { primary_culture = old_saxon } } change_primary_culture = old_saxon }
		every_country = { limit = { tag = BRA exists = no NOT = { primary_culture = low_saxon } } change_primary_culture = low_saxon }
		every_country = { limit = { tag = PRU exists = no NOT = { primary_culture = prussian } } change_primary_culture = prussian }
		every_country = { limit = { tag = KUR exists = no NOT = { primary_culture = baltendeutsche } } change_primary_culture = baltendeutsche }
		every_country = { limit = { tag = HES exists = no NOT = { primary_culture = hessian } } change_primary_culture = hessian }
		every_country = { limit = { tag = SAX exists = no NOT = { primary_culture = high_saxon } } change_primary_culture = high_saxon }
		every_country = { limit = { tag = LUX exists = no NOT = { primary_culture = moselfranconian } } change_primary_culture = moselfranconian }
		every_country = { limit = { tag = JUL exists = no NOT = { primary_culture = ripuarianfranconian } } change_primary_culture = ripuarianfranconian }
		every_country = { limit = { tag = WBG exists = no NOT = { primary_culture = eastfranconian } } change_primary_culture = eastfranconian }
		every_country = { limit = { tag = BAV exists = no NOT = { primary_culture = bavarian } } change_primary_culture = bavarian }
		every_country = { limit = { tag = WUR exists = no NOT = { primary_culture = schwabisch } } change_primary_culture = schwabisch }
		every_country = { limit = { tag = SWI exists = no NOT = { primary_culture = suisse } } change_primary_culture = suisse }
		every_country = { limit = { tag = HAB exists = no NOT = { primary_culture = austrian } } change_primary_culture = austrian }
		every_country = { limit = { tag = HOL exists = no NOT = { primary_culture = dutch } } change_primary_culture = dutch }
		every_country = { limit = { tag = FLA exists = no NOT = { primary_culture = flemish } } change_primary_culture = flemish }
		every_country = { limit = { tag = BRB exists = no NOT = { primary_culture = brabantian } } change_primary_culture = brabantian }
		every_country = { limit = { tag = HAI exists = no NOT = { primary_culture = wallonian } } change_primary_culture = wallonian }
		every_country = { limit = { tag = BUR exists = no NOT = { primary_culture = burgundian } } change_primary_culture = burgundian }
		every_country = { limit = { tag = FRI exists = no NOT = { primary_culture = frisian } } change_primary_culture = frisian }
		every_country = { limit = { tag = SWE exists = no NOT = { primary_culture = swedish } } change_primary_culture = swedish }
		every_country = { limit = { tag = OST exists = no NOT = { primary_culture = gotar } } change_primary_culture = gotar }
		every_country = { limit = { tag = GOT exists = no NOT = { primary_culture = gutnish } } change_primary_culture = gutnish }
		every_country = { limit = { tag = FIN exists = no NOT = { primary_culture = finnish } } change_primary_culture = finnish }
		every_country = { limit = { tag = EST exists = no NOT = { primary_culture = estonian } } change_primary_culture = estonian }
		every_country = { limit = { tag = DEN exists = no NOT = { primary_culture = danish } } change_primary_culture = danish }
		every_country = { limit = { tag = SKA exists = no NOT = { primary_culture = scanian } } change_primary_culture = scanian }
		every_country = { limit = { tag = NOR exists = no NOT = { primary_culture = norwegian } } change_primary_culture = norwegian }
		every_country = { limit = { tag = ICE exists = no NOT = { primary_culture = norse } } change_primary_culture = norse }
		every_country = { limit = { tag = ENG exists = no NOT = { primary_culture = english } } change_primary_culture = english }
		every_country = { limit = { tag = NOL exists = no NOT = { primary_culture = northern_e } } change_primary_culture = northern_e }
		every_country = { limit = { tag = SCO exists = no NOT = { primary_culture = lowland_scottish } } change_primary_culture = lowland_scottish }
		every_country = { limit = { tag = USA exists = no NOT = { primary_culture = british_colonial } } change_primary_culture = british_colonial }
		every_country = { limit = { tag = IRE exists = no NOT = { primary_culture = irish } } change_primary_culture = irish }
		every_country = { limit = { tag = MEA exists = no NOT = { primary_culture = hiberno_norman } } change_primary_culture = hiberno_norman }
		every_country = { limit = { tag = WLS exists = no NOT = { primary_culture = welsh } } change_primary_culture = welsh }
		every_country = { limit = { tag = BRI exists = no NOT = { primary_culture = breton } } change_primary_culture = breton }
		every_country = { limit = { tag = CRN exists = no NOT = { primary_culture = cornish } } change_primary_culture = cornish }
		every_country = { limit = { tag = MLO exists = no NOT = { primary_culture = lombard } } change_primary_culture = lombard }
		every_country = { limit = { tag = COR exists = no NOT = { primary_culture = corsican } } change_primary_culture = corsican }
		every_country = { limit = { tag = SAV exists = no NOT = { primary_culture = piedmontese } } change_primary_culture = piedmontese }
		every_country = { limit = { tag = GEN exists = no NOT = { primary_culture = ligurian } } change_primary_culture = ligurian }
		every_country = { limit = { tag = VEN exists = no NOT = { primary_culture = venetian } } change_primary_culture = venetian }
		every_country = { limit = { tag = MOD exists = no NOT = { primary_culture = emilian } } change_primary_culture = emilian }
		every_country = { limit = { tag = TUS exists = no NOT = { primary_culture = tuscan } } change_primary_culture = tuscan }
		every_country = { limit = { tag = RAG exists = no NOT = { primary_culture = dalmatian } } change_primary_culture = dalmatian }
		every_country = { limit = { tag = URB exists = no NOT = { primary_culture = umbrian } } change_primary_culture = umbrian }
		every_country = { limit = { tag = RIM exists = no NOT = { primary_culture = romagnol } } change_primary_culture = romagnol }
		every_country = { limit = { tag = GBN exists = no NOT = { primary_culture = romansh } } change_primary_culture = romansh }
		every_country = { limit = { tag = AQU exists = no NOT = { primary_culture = friulian } } change_primary_culture = friulian }
		every_country = { limit = { tag = SIC exists = no NOT = { primary_culture = sicilian } } change_primary_culture = sicilian }
		every_country = { limit = { tag = KNP exists = no NOT = { primary_culture = neapolitan } } change_primary_culture = neapolitan }
		every_country = { limit = { tag = SAR exists = no NOT = { primary_culture = sardinian } } change_primary_culture = sardinian }
		every_country = { limit = { tag = CAS exists = no NOT = { primary_culture = castillian } } change_primary_culture = castillian }
		every_country = { limit = { tag = LEO exists = no NOT = { primary_culture = asturian } } change_primary_culture = asturian }
		every_country = { limit = { tag = ARA exists = no NOT = { primary_culture = aragonese } } change_primary_culture = aragonese }
		every_country = { limit = { tag = POR exists = no NOT = { primary_culture = portugese } } change_primary_culture = portugese }
		every_country = { limit = { tag = GAL exists = no NOT = { primary_culture = galician } } change_primary_culture = galician }
		every_country = { limit = { tag = FRA exists = no NOT = { primary_culture = francien } } change_primary_culture = francien }
		every_country = { limit = { tag = NRM exists = no NOT = { primary_culture = normand } } change_primary_culture = normand }
		every_country = { limit = { tag = ARS exists = no NOT = { primary_culture = picard } } change_primary_culture = picard }
		every_country = { limit = { tag = LOR exists = no NOT = { primary_culture = lorrain } } change_primary_culture = lorrain }
		every_country = { limit = { tag = BUR exists = no NOT = { primary_culture = bourguignon } } change_primary_culture = bourguignon }
		every_country = { limit = { tag = ANJ exists = no NOT = { primary_culture = angevin } } change_primary_culture = angevin }
		every_country = { limit = { tag = SAV exists = no NOT = { primary_culture = arpitan } } change_primary_culture = arpitan }
		every_country = { limit = { tag = CYP exists = no NOT = { primary_culture = frankish } } change_primary_culture = frankish }
		every_country = { limit = { tag = GUY exists = no NOT = { primary_culture = gascon } } change_primary_culture = gascon }
		every_country = { limit = { tag = AUV exists = no NOT = { primary_culture = auvergnat } } change_primary_culture = auvergnat }
		every_country = { limit = { tag = TOU exists = no NOT = { primary_culture = occitain } } change_primary_culture = occitain }
		every_country = { limit = { tag = VLT exists = no NOT = { primary_culture = vivaroaupenc } } change_primary_culture = vivaroaupenc }
		every_country = { limit = { tag = AMG exists = no NOT = { primary_culture = limousin } } change_primary_culture = limousin }
		every_country = { limit = { tag = PRO exists = no NOT = { primary_culture = provencal } } change_primary_culture = provencal }
		every_country = { limit = { tag = CAT exists = no NOT = { primary_culture = catalan } } change_primary_culture = catalan }
		every_country = { limit = { tag = BLE exists = no NOT = { primary_culture = balearic } } change_primary_culture = balearic }
		every_country = { limit = { tag = NAV exists = no NOT = { primary_culture = basque } } change_primary_culture = basque }
		every_country = { limit = { tag = KRL exists = no NOT = { primary_culture = karelian } } change_primary_culture = karelian }
		every_country = { limit = { tag = CRO exists = no NOT = { primary_culture = croatian } } change_primary_culture = croatian }
		every_country = { limit = { tag = SER exists = no NOT = { primary_culture = serbian } } change_primary_culture = serbian }
		every_country = { limit = { tag = BOS exists = no NOT = { primary_culture = bosnian } } change_primary_culture = bosnian }
		every_country = { limit = { tag = CAR exists = no NOT = { primary_culture = slovenian } } change_primary_culture = slovenian }
		every_country = { limit = { tag = WAL exists = no NOT = { primary_culture = vlach } } change_primary_culture = vlach }
		every_country = { limit = { tag = MOL exists = no NOT = { primary_culture = moldovian } } change_primary_culture = moldovian }
		every_country = { limit = { tag = TRA exists = no NOT = { primary_culture = transylvanian } } change_primary_culture = transylvanian }
		every_country = { limit = { tag = NOV exists = no NOT = { primary_culture = novgorodian } } change_primary_culture = novgorodian }
		every_country = { limit = { tag = MOS exists = no NOT = { primary_culture = russian } } change_primary_culture = russian }
		every_country = { limit = { tag = UKR exists = no NOT = { primary_culture = ukrainian } } change_primary_culture = ukrainian }
		every_country = { limit = { tag = PLT exists = no NOT = { primary_culture = byelorussian } } change_primary_culture = byelorussian }
		every_country = { limit = { tag = KIE exists = no NOT = { primary_culture = ruthenian } } change_primary_culture = ruthenian }
		every_country = { limit = { tag = TUR exists = no NOT = { primary_culture = turkish } } change_primary_culture = turkish }
		every_country = { limit = { tag = ERE exists = no NOT = { primary_culture = yorouk } } change_primary_culture = yorouk }
		every_country = { limit = { tag = GRE exists = no NOT = { primary_culture = greek } } change_primary_culture = greek }
		every_country = { limit = { tag = ALB exists = no NOT = { primary_culture = albanian } } change_primary_culture = albanian }
		every_country = { limit = { tag = BUL exists = no NOT = { primary_culture = bulgarian } } change_primary_culture = bulgarian }
		every_country = { limit = { tag = GEO exists = no NOT = { primary_culture = georgian } } change_primary_culture = georgian }
		every_country = { limit = { tag = GAZ exists = no NOT = { primary_culture = dagestani } } change_primary_culture = dagestani }
		every_country = { limit = { tag = CIR exists = no NOT = { primary_culture = circassian } } change_primary_culture = circassian }
		every_country = { limit = { tag = ARM exists = no NOT = { primary_culture = ge_armenian } } change_primary_culture = ge_armenian }
		every_country = { limit = { tag = SYU exists = no NOT = { primary_culture = owm_armenian } } change_primary_culture = owm_armenian }
		every_country = { limit = { tag = KAM exists = no NOT = { primary_culture = cilician } } change_primary_culture = cilician }
		every_country = { limit = { tag = HUN exists = no NOT = { primary_culture = hungarian } } change_primary_culture = hungarian }
		every_country = { limit = { tag = BOH exists = no NOT = { primary_culture = czech } } change_primary_culture = czech }
		every_country = { limit = { tag = MRV exists = no NOT = { primary_culture = moravian } } change_primary_culture = moravian }
		every_country = { limit = { tag = SIL exists = no NOT = { primary_culture = silesian } } change_primary_culture = silesian }
		every_country = { limit = { tag = POL exists = no NOT = { primary_culture = polish } } change_primary_culture = polish }
		every_country = { limit = { tag = LIT exists = no NOT = { primary_culture = lithuanian } } change_primary_culture = lithuanian }
		every_country = { limit = { tag = LIV exists = no NOT = { primary_culture = latvian } } change_primary_culture = latvian }
		every_country = { limit = { tag = HEJ exists = no NOT = { primary_culture = hejazi } } change_primary_culture = hejazi }
		every_country = { limit = { tag = NAJ exists = no NOT = { primary_culture = najdi } } change_primary_culture = najdi }
		every_country = { limit = { tag = OMA exists = no NOT = { primary_culture = omani } } change_primary_culture = omani }
		every_country = { limit = { tag = HAD exists = no NOT = { primary_culture = hadhrami } } change_primary_culture = hadhrami }
		every_country = { limit = { tag = YEM exists = no NOT = { primary_culture = yemeni } } change_primary_culture = yemeni }
		every_country = { limit = { tag = SAM exists = no NOT = { primary_culture = persian } } change_primary_culture = persian }
		every_country = { limit = { tag = MZA exists = no NOT = { primary_culture = tabari } } change_primary_culture = tabari }
		every_country = { limit = { tag = BAL exists = no NOT = { primary_culture = baluchi } } change_primary_culture = baluchi }
		every_country = { limit = { tag = KRD exists = no NOT = { primary_culture = kurdish } } change_primary_culture = kurdish }
		every_country = { limit = { tag = DUR exists = no NOT = { primary_culture = pashtun } } change_primary_culture = pashtun }
		every_country = { limit = { tag = SHI exists = no NOT = { primary_culture = azerbadjani } } change_primary_culture = azerbadjani }
		every_country = { limit = { tag = MCH exists = no NOT = { primary_culture = jurchen } } change_primary_culture = jurchen }
		every_country = { limit = { tag = KHA exists = no NOT = { primary_culture = khalkas } } change_primary_culture = khalkas }
		every_country = { limit = { tag = OIR exists = no NOT = { primary_culture = oirats } } change_primary_culture = oirats }
		every_country = { limit = { tag = MYR exists = no NOT = { primary_culture = daur } } change_primary_culture = daur }
		every_country = { limit = { tag = BRT exists = no NOT = { primary_culture = buryat } } change_primary_culture = buryat }
		every_country = { limit = { tag = CHH exists = no NOT = { primary_culture = chahar } } change_primary_culture = chahar }
		every_country = { limit = { tag = TMD exists = no NOT = { primary_culture = tumed } } change_primary_culture = tumed }
		every_country = { limit = { tag = KHR exists = no NOT = { primary_culture = khorchin } } change_primary_culture = khorchin }
		every_country = { limit = { tag = PRM exists = no NOT = { primary_culture = uralic } } change_primary_culture = uralic }
		every_country = { limit = { tag = PLM exists = no NOT = { primary_culture = mansi } } change_primary_culture = mansi }
		every_country = { limit = { tag = KOD exists = no NOT = { primary_culture = khanty } } change_primary_culture = khanty }
		every_country = { limit = { tag = SKP exists = no NOT = { primary_culture = selkup } } change_primary_culture = selkup }
		every_country = { limit = { tag = AST exists = no NOT = { primary_culture = astrakhani } } change_primary_culture = astrakhani }
		every_country = { limit = { tag = CRI exists = no NOT = { primary_culture = crimean } } change_primary_culture = crimean }
		every_country = { limit = { tag = KAZ exists = no NOT = { primary_culture = kazani } } change_primary_culture = kazani }
		every_country = { limit = { tag = KZH exists = no NOT = { primary_culture = khazak } } change_primary_culture = khazak }
		every_country = { limit = { tag = CHG exists = no NOT = { primary_culture = kirgiz } } change_primary_culture = kirgiz }
		every_country = { limit = { tag = KHI exists = no NOT = { primary_culture = kwarezhmi } } change_primary_culture = kwarezhmi }
		every_country = { limit = { tag = SIB exists = no NOT = { primary_culture = siberian } } change_primary_culture = siberian }
		every_country = { limit = { tag = GOL exists = no NOT = { primary_culture = tartar } } change_primary_culture = tartar }
		every_country = { limit = { tag = KHO exists = no NOT = { primary_culture = turkmeni } } change_primary_culture = turkmeni }
		every_country = { limit = { tag = SHY exists = no NOT = { primary_culture = uzbehk } } change_primary_culture = uzbehk }
		every_country = { limit = { tag = UIG exists = no NOT = { primary_culture = uyghur } } change_primary_culture = uyghur }
		every_country = { limit = { tag = BSH exists = no NOT = { primary_culture = bashkir } } change_primary_culture = bashkir }
		every_country = { limit = { tag = SAK exists = no NOT = { primary_culture = yakut } } change_primary_culture = yakut }
		every_country = { limit = { tag = DTE exists = no NOT = { primary_culture = tohoku } } change_primary_culture = tohoku }
		every_country = { limit = { tag = SBA exists = no NOT = { primary_culture = chubu } } change_primary_culture = chubu }
		every_country = { limit = { tag = USG exists = no NOT = { primary_culture = kanto } } change_primary_culture = kanto }
		every_country = { limit = { tag = AKG exists = no NOT = { primary_culture = kansai } } change_primary_culture = kansai }
		every_country = { limit = { tag = OUC exists = no NOT = { primary_culture = chugoku } } change_primary_culture = chugoku }
		every_country = { limit = { tag = HKW exists = no NOT = { primary_culture = shikoku } } change_primary_culture = shikoku }
		every_country = { limit = { tag = SMZ exists = no NOT = { primary_culture = kyushu } } change_primary_culture = kyushu }
		every_country = { limit = { tag = RYU exists = no NOT = { primary_culture = ryukyuan } } change_primary_culture = ryukyuan }
		every_country = { limit = { tag = KOR exists = no NOT = { primary_culture = korean } } change_primary_culture = korean }
		every_country = { limit = { tag = QNG exists = no NOT = { primary_culture = manchu } } change_primary_culture = manchu }
		every_country = { limit = { tag = SNG exists = no NOT = { primary_culture = hanyu } } change_primary_culture = hanyu }
		every_country = { limit = { tag = QIN exists = no NOT = { primary_culture = lanyin } } change_primary_culture = lanyin }
		every_country = { limit = { tag = ZOU exists = no NOT = { primary_culture = wuhan } } change_primary_culture = wuhan }
		every_country = { limit = { tag = YUE exists = no NOT = { primary_culture = hakka } } change_primary_culture = hakka }
		every_country = { limit = { tag = YUE exists = no NOT = { primary_culture = yueyu } } change_primary_culture = yueyu }
		every_country = { limit = { tag = CEN exists = no NOT = { primary_culture = minyu } } change_primary_culture = minyu }
		every_country = { limit = { tag = LUS exists = no NOT = { primary_culture = lussong } } change_primary_culture = lussong }
		every_country = { limit = { tag = KHM exists = no NOT = { primary_culture = khmer } } change_primary_culture = khmer }
		every_country = { limit = { tag = DAI exists = no NOT = { primary_culture = vietnamese } } change_primary_culture = vietnamese }
		every_country = { limit = { tag = ZHN exists = no NOT = { primary_culture = zhuang } } change_primary_culture = zhuang }
		every_country = { limit = { tag = JCH exists = no NOT = { primary_culture = miao } } change_primary_culture = miao }
		every_country = { limit = { tag = DLI exists = no NOT = { primary_culture = baizu } } change_primary_culture = baizu }
		every_country = { limit = { tag = NNZ exists = no NOT = { primary_culture = yizu } } change_primary_culture = yizu }
		every_country = { limit = { tag = CHA exists = no NOT = { primary_culture = cham } } change_primary_culture = cham }
		every_country = { limit = { tag = MLC exists = no NOT = { primary_culture = malayan } } change_primary_culture = malayan }
		every_country = { limit = { tag = ATJ exists = no NOT = { primary_culture = acehenese } } change_primary_culture = acehenese }
		every_country = { limit = { tag = ARU exists = no NOT = { primary_culture = batak } } change_primary_culture = batak }
		every_country = { limit = { tag = MKP exists = no NOT = { primary_culture = minang } } change_primary_culture = minang }
		every_country = { limit = { tag = BKS exists = no NOT = { primary_culture = banjar } } change_primary_culture = banjar }
		every_country = { limit = { tag = SUL exists = no NOT = { primary_culture = tausug } } change_primary_culture = tausug }
		every_country = { limit = { tag = SUL exists = no NOT = { primary_culture = filipino } } change_primary_culture = filipino }
		every_country = { limit = { tag = MGD exists = no NOT = { primary_culture = maguindanao } } change_primary_culture = maguindanao }
		every_country = { limit = { tag = LNA exists = no NOT = { primary_culture = lanna } } change_primary_culture = lanna }
		every_country = { limit = { tag = LXA exists = no NOT = { primary_culture = laotian } } change_primary_culture = laotian }
		every_country = { limit = { tag = AYU exists = no NOT = { primary_culture = thai } } change_primary_culture = thai }
		every_country = { limit = { tag = LDK exists = no NOT = { primary_culture = ladakhi } } change_primary_culture = ladakhi }
		every_country = { limit = { tag = TIB exists = no NOT = { primary_culture = tibetan } } change_primary_culture = tibetan }
		every_country = { limit = { tag = BHU exists = no NOT = { primary_culture = bhutanese } } change_primary_culture = bhutanese }
		every_country = { limit = { tag = SKK exists = no NOT = { primary_culture = sikkimese } } change_primary_culture = sikkimese }
		every_country = { limit = { tag = TAU exists = no NOT = { primary_culture = burmese } } change_primary_culture = burmese }
		every_country = { limit = { tag = ARK exists = no NOT = { primary_culture = arakanese } } change_primary_culture = arakanese }
		every_country = { limit = { tag = PEG exists = no NOT = { primary_culture = monic } } change_primary_culture = monic }
		every_country = { limit = { tag = SST exists = no NOT = { primary_culture = shan } } change_primary_culture = shan }
		every_country = { limit = { tag = ASS exists = no NOT = { primary_culture = assamese } } change_primary_culture = assamese }
		every_country = { limit = { tag = MLB exists = no NOT = { primary_culture = meitei } } change_primary_culture = meitei }
		every_country = { limit = { tag = SDY exists = no NOT = { primary_culture = sutiya } } change_primary_culture = sutiya }
		every_country = { limit = { tag = KMT exists = no NOT = { primary_culture = kochrajbongshi } } change_primary_culture = kochrajbongshi }
		every_country = { limit = { tag = TPR exists = no NOT = { primary_culture = tripuri } } change_primary_culture = tripuri }
		every_country = { limit = { tag = DMS exists = no NOT = { primary_culture = dimasa } } change_primary_culture = dimasa }
		every_country = { limit = { tag = BNG exists = no NOT = { primary_culture = bengali } } change_primary_culture = bengali }
		every_country = { limit = { tag = TRT exists = no NOT = { primary_culture = bihari } } change_primary_culture = bihari }
		every_country = { limit = { tag = ORI exists = no NOT = { primary_culture = oriya } } change_primary_culture = oriya }
		every_country = { limit = { tag = ODH exists = no NOT = { primary_culture = avadhi } } change_primary_culture = avadhi }
		every_country = { limit = { tag = DLH exists = no NOT = { primary_culture = kanauji } } change_primary_culture = kanauji }
		every_country = { limit = { tag = PTA exists = no NOT = { primary_culture = panjabi } } change_primary_culture = panjabi }
		every_country = { limit = { tag = KSH exists = no NOT = { primary_culture = kashmiri } } change_primary_culture = kashmiri }
		every_country = { limit = { tag = BND exists = no NOT = { primary_culture = bundeli } } change_primary_culture = bundeli }
		every_country = { limit = { tag = BGL exists = no NOT = { primary_culture = bagheli } } change_primary_culture = bagheli }
		every_country = { limit = { tag = SND exists = no NOT = { primary_culture = sindhi } } change_primary_culture = sindhi }
		every_country = { limit = { tag = MUL exists = no NOT = { primary_culture = multani } } change_primary_culture = multani }
		every_country = { limit = { tag = GHR exists = no NOT = { primary_culture = gondi } } change_primary_culture = gondi }
		every_country = { limit = { tag = NGP exists = no NOT = { primary_culture = nagpuri } } change_primary_culture = nagpuri }
		every_country = { limit = { tag = GRJ exists = no NOT = { primary_culture = sambalpuri } } change_primary_culture = sambalpuri }
		every_country = { limit = { tag = KGR exists = no NOT = { primary_culture = pahari } } change_primary_culture = pahari }
		every_country = { limit = { tag = NPL exists = no NOT = { primary_culture = nepali } } change_primary_culture = nepali }
		every_country = { limit = { tag = MAR exists = no NOT = { primary_culture = marathi } } change_primary_culture = marathi }
		every_country = { limit = { tag = BIJ exists = no NOT = { primary_culture = dakani } } change_primary_culture = dakani }
		every_country = { limit = { tag = JAJ exists = no NOT = { primary_culture = habshi } } change_primary_culture = habshi }
		every_country = { limit = { tag = KHD exists = no NOT = { primary_culture = khandeshi } } change_primary_culture = khandeshi }
		every_country = { limit = { tag = MYS exists = no NOT = { primary_culture = kannada } } change_primary_culture = kannada }
		every_country = { limit = { tag = GOC exists = no NOT = { primary_culture = telegu } } change_primary_culture = telegu }
		every_country = { limit = { tag = KLN exists = no NOT = { primary_culture = tuluva } } change_primary_culture = tuluva }
		every_country = { limit = { tag = MEW exists = no NOT = { primary_culture = mewari } } change_primary_culture = mewari }
		every_country = { limit = { tag = JAU exists = no NOT = { primary_culture = dhundari } } change_primary_culture = dhundari }
		every_country = { limit = { tag = MAW exists = no NOT = { primary_culture = marwari } } change_primary_culture = marwari }
		every_country = { limit = { tag = HDT exists = no NOT = { primary_culture = harauti } } change_primary_culture = harauti }
		every_country = { limit = { tag = MLW exists = no NOT = { primary_culture = malvi } } change_primary_culture = malvi }
		every_country = { limit = { tag = GUJ exists = no NOT = { primary_culture = gujarati } } change_primary_culture = gujarati }
		every_country = { limit = { tag = KAT exists = no NOT = { primary_culture = saurashtri } } change_primary_culture = saurashtri }
		every_country = { limit = { tag = IDR exists = no NOT = { primary_culture = bhil } } change_primary_culture = bhil }
		every_country = { limit = { tag = BIK exists = no NOT = { primary_culture = jati } } change_primary_culture = jati }
		every_country = { limit = { tag = GWA exists = no NOT = { primary_culture = tomara } } change_primary_culture = tomara }
		every_country = { limit = { tag = ALR exists = no NOT = { primary_culture = meo } } change_primary_culture = meo }
		every_country = { limit = { tag = TRV exists = no NOT = { primary_culture = malayalam } } change_primary_culture = malayalam }
		every_country = { limit = { tag = KTH exists = no NOT = { primary_culture = sinhala } } change_primary_culture = sinhala }
		every_country = { limit = { tag = MAD exists = no NOT = { primary_culture = tamil } } change_primary_culture = tamil }
		every_country = { limit = { tag = MLD exists = no NOT = { primary_culture = mahl } } change_primary_culture = mahl }
		every_country = { limit = { tag = EGY exists = no NOT = { primary_culture = egyptian } } change_primary_culture = egyptian }
		every_country = { limit = { tag = SYR exists = no NOT = { primary_culture = shami } } change_primary_culture = shami }
		every_country = { limit = { tag = IRQ exists = no NOT = { primary_culture = iraqi } } change_primary_culture = iraqi }
		every_country = { limit = { tag = GRA exists = no NOT = { primary_culture = maure } } change_primary_culture = maure }
		every_country = { limit = { tag = MOR exists = no NOT = { primary_culture = fassi } } change_primary_culture = fassi }
		every_country = { limit = { tag = ALG exists = no NOT = { primary_culture = algerian } } change_primary_culture = algerian }
		every_country = { limit = { tag = TUN exists = no NOT = { primary_culture = tunisian } } change_primary_culture = tunisian }
		every_country = { limit = { tag = TRP exists = no NOT = { primary_culture = libyan } } change_primary_culture = libyan }
		every_country = { limit = { tag = CNA exists = no NOT = { primary_culture = guanche } } change_primary_culture = guanche }
		every_country = { limit = { tag = FEZ exists = no NOT = { primary_culture = tamazight } } change_primary_culture = tamazight }
		every_country = { limit = { tag = SOS exists = no NOT = { primary_culture = chleuh } } change_primary_culture = chleuh }
		every_country = { limit = { tag = KBA exists = no NOT = { primary_culture = kabyle } } change_primary_culture = kabyle }
		every_country = { limit = { tag = TUA exists = no NOT = { primary_culture = tuareg } } change_primary_culture = tuareg }
		every_country = { limit = { tag = SOK exists = no NOT = { primary_culture = fulani } } change_primary_culture = fulani }
		every_country = { limit = { tag = MAL exists = no NOT = { primary_culture = mali } } change_primary_culture = mali }
		every_country = { limit = { tag = DJO exists = no NOT = { primary_culture = senegambian } } change_primary_culture = senegambian }
		every_country = { limit = { tag = SON exists = no NOT = { primary_culture = songhai } } change_primary_culture = songhai }
		every_country = { limit = { tag = DAR exists = no NOT = { primary_culture = chadic } } change_primary_culture = chadic }
		every_country = { limit = { tag = KBO exists = no NOT = { primary_culture = kanouri } } change_primary_culture = kanouri }
		every_country = { limit = { tag = KON exists = no NOT = { primary_culture = lunda } } change_primary_culture = lunda }
		every_country = { limit = { tag = NDO exists = no NOT = { primary_culture = mbundu } } change_primary_culture = mbundu }
		every_country = { limit = { tag = ZAN exists = no NOT = { primary_culture = kiunguja } } change_primary_culture = kiunguja }
		every_country = { limit = { tag = KIL exists = no NOT = { primary_culture = kimgao } } change_primary_culture = kimgao }
		every_country = { limit = { tag = SOF exists = no NOT = { primary_culture = kimwani } } change_primary_culture = kimwani }
		every_country = { limit = { tag = MOG exists = no NOT = { primary_culture = chimwini } } change_primary_culture = chimwini }
		every_country = { limit = { tag = MKU exists = no NOT = { primary_culture = nubian } } change_primary_culture = nubian }
		every_country = { limit = { tag = SEN exists = no NOT = { primary_culture = funj } } change_primary_culture = funj }
		every_country = { limit = { tag = ADA exists = no NOT = { primary_culture = somali } } change_primary_culture = somali }
		every_country = { limit = { tag = ETH exists = no NOT = { primary_culture = amhara } } change_primary_culture = amhara }
		every_country = { limit = { tag = MED exists = no NOT = { primary_culture = tigrean } } change_primary_culture = tigrean }
		every_country = { limit = { tag = SID exists = no NOT = { primary_culture = sidamo } } change_primary_culture = sidamo }
		every_country = { limit = { tag = DSL exists = no NOT = { primary_culture = silla } } change_primary_culture = silla }
		every_country = { limit = { tag = DAR exists = no NOT = { primary_culture = foora } } change_primary_culture = foora }
		every_country = { limit = { tag = KDF exists = no NOT = { primary_culture = nuba } } change_primary_culture = nuba }
		every_country = { limit = { tag = SLL exists = no NOT = { primary_culture = shilluk } } change_primary_culture = shilluk }
		every_country = { limit = { tag = CZC exists = no NOT = { primary_culture = quechuan } } change_primary_culture = quechuan }
		every_country = { limit = { tag = AYM exists = no NOT = { primary_culture = aimara } } change_primary_culture = aimara }
		every_country = { limit = { tag = NZC exists = no NOT = { primary_culture = nazca } } change_primary_culture = nazca }
		every_country = { limit = { tag = CHM exists = no NOT = { primary_culture = chimu } } change_primary_culture = chimu }
		every_country = { limit = { tag = CBC exists = no NOT = { primary_culture = chibcha } } change_primary_culture = chibcha }
		every_country = { limit = { tag = TEN exists = no NOT = { primary_culture = nahuatl_c } } change_primary_culture = nahuatl_c }
		every_country = { limit = { tag = TEP exists = no NOT = { primary_culture = tepanec } } change_primary_culture = tepanec }
		every_country = { limit = { tag = TXL exists = no NOT = { primary_culture = tlaxcallan } } change_primary_culture = tlaxcallan }
		every_country = { limit = { tag = TPQ exists = no NOT = { primary_culture = chontal } } change_primary_culture = chontal }
		every_country = { limit = { tag = TOT exists = no NOT = { primary_culture = totonac } } change_primary_culture = totonac }
		every_country = { limit = { tag = TOC exists = no NOT = { primary_culture = nawa } } change_primary_culture = nawa }
		every_country = { limit = { tag = MET exists = no NOT = { primary_culture = metztitlani } } change_primary_culture = metztitlani }
		every_country = { limit = { tag = MIX exists = no NOT = { primary_culture = mixtec } } change_primary_culture = mixtec }
		every_country = { limit = { tag = ZAP exists = no NOT = { primary_culture = zapotec } } change_primary_culture = zapotec }
		every_country = { limit = { tag = COY exists = no NOT = { primary_culture = zoque } } change_primary_culture = zoque }
		every_country = { limit = { tag = MAY exists = no NOT = { primary_culture = yucatecan } } change_primary_culture = yucatecan }
		every_country = { limit = { tag = ITZ exists = no NOT = { primary_culture = itza } } change_primary_culture = itza }
		every_country = { limit = { tag = MAA exists = no NOT = { primary_culture = mamean } } change_primary_culture = mamean }
		every_country = { limit = { tag = QUM exists = no NOT = { primary_culture = quichean } } change_primary_culture = quichean }
		every_country = { limit = { tag = TEE exists = no NOT = { primary_culture = huastec } } change_primary_culture = huastec }
		every_country = { limit = { tag = QUI exists = no NOT = { primary_culture = cara } } change_primary_culture = cara }
		every_country = { limit = { tag = CLM exists = no NOT = { primary_culture = tecos } } change_primary_culture = tecos }
		every_country = { limit = { tag = MKS exists = no NOT = { primary_culture = bugis } } change_primary_culture = bugis }
		every_country = { limit = { tag = HAW exists = no NOT = { primary_culture = hawaian } } change_primary_culture = hawaian }
		every_country = { limit = { tag = LOU exists = no NOT = { primary_culture = acadian } } change_primary_culture = acadian }
		every_country = { limit = { tag = HAT exists = no NOT = { primary_culture = creole } } change_primary_culture = creole }
		every_country = { limit = { tag = QUE exists = no NOT = { primary_culture = canadian } } change_primary_culture = canadian }
		every_country = { limit = { tag = USA exists = no NOT = { primary_culture = american } } change_primary_culture = american }
		every_country = { limit = { tag = MEX exists = no NOT = { primary_culture = mexican } } change_primary_culture = mexican }
		every_country = { limit = { tag = COL exists = no NOT = { primary_culture = colombian } } change_primary_culture = colombian }
		every_country = { limit = { tag = PEU exists = no NOT = { primary_culture = peruvian } } change_primary_culture = peruvian }
		every_country = { limit = { tag = LAP exists = no NOT = { primary_culture = platean } } change_primary_culture = platean }
		every_country = { limit = { tag = BRZ exists = no NOT = { primary_culture = brazilian } } change_primary_culture = brazilian }
		every_country = { limit = { tag = HAT exists = no NOT = { primary_culture = maroon } } change_primary_culture = maroon }
}

remove_obsolete_flags_effect = {
	every_country = {
		limit = {
			exists = no
		}
		if = {
			limit = {
				has_country_modifier = "centralisation_efforts"
			}
			remove_country_modifier = "centralisation_efforts"
			set_variable = { which = Centralisation_Effort_Years value = 0 }
		}
		if = {
			limit = {
				has_country_modifier = "decentralisation_efforts"
			}
			remove_country_modifier = "decentralisation_efforts"
			set_variable = { which = Decentralisation_Effort_Years value = 0 }
		}
		if = {
			limit = {
				has_country_flag = autonomy_garanteed
			}
			clr_country_flag = autonomy_garanteed
		}
		if = {
			limit = {
				has_country_flag = pacta_conventa
			}
			clr_country_flag = pacta_conventa
		}
		if = {
			limit = {
				has_country_flag = pacta_conventa_accepted
			}
			clr_country_flag = pacta_conventa_accepted
		}
		if = {
			limit = {
				has_country_modifier = wrath_of_god
			}
			remove_country_modifier = wrath_of_god
		}
		if = {
			limit = {
				has_country_flag = crusader_kingdom
			}
			clr_country_flag = crusader_kingdom
		}
		if = {
			limit = {
				has_country_flag = erik_s_rebellion
			}
			clr_country_flag = erik_s_rebellion
		}
		if = {
			limit = {
				has_country_modifier = blessing_of_god
			}
			remove_country_modifier = blessing_of_god
		}
		if = {
			limit = {
				has_country_flag = red_turban_reb
				exists = no
			}
			clr_country_flag = red_turban_reb
		}
		if = {
			limit = {
				has_country_flag = lost_mandate_of_heaven
			}
			clr_country_flag = lost_mandate_of_heaven
		}
		if = {
			limit = {
				has_country_flag = horde_sedentarisation_triggered
			}
			clr_country_flag = horde_sedentarisation_triggered
		}
		if = {
			limit = {
				has_country_flag = horde_sedentarisation_underway
			}
			clr_country_flag = horde_sedentarisation_underway
		}
		if = {
			limit = {
				has_country_flag = horde_sedentarisation_over
			}
			clr_country_flag = horde_sedentarisation_over
		}
	}
}