#####################################
# MEIOU and Taxes - Natural disasters
#####################################

sismic_chaos_minor_effect = {
		add_province_modifier = { name = "sismic_chaos_minor" duration = 365 }
}

sismic_chaos_mild_effect = {
	add_province_modifier = { name = "sismic_chaos_mild" duration = 365 }
	if = {
		limit = { NOT = { base_tax = 100 } base_tax = 50 }
		random = {
			chance = 20
			add_base_tax = -1
		}
	}
	if = {
		limit = { NOT = { base_tax = 150 } base_tax = 100 }
		random = {
			chance = 20
			add_base_tax = -2
		}
	}
	if = {
		limit = { NOT = { base_tax = 200 } base_tax = 150 }
		random = {
			chance = 20
			add_base_tax = -3
		}
	}
	if = {
		limit = { NOT = { base_tax = 250 } base_tax = 200 }
		random = {
			chance = 20
			add_base_tax = -4
		}
	}
	if = {
		limit = { base_tax = 250 }
		random = {
			chance = 20
			add_base_tax = -5
		}
	}
	every_neighbor_province = { add_province_modifier = { name = "sismic_chaos_minor" duration = 365 } }
}

sismic_chaos_major_effect = {
	add_province_modifier = { name = "sismic_chaos_major" duration = 365 }
	if = {
		limit = { NOT = { base_tax = 25 } base_tax = 5 }
		random = {
			chance = 20
			add_base_tax = -1
		}
	}
	if = {
		limit = { NOT = { base_tax = 50 } base_tax = 25 }
		random = {
			chance = 20
			add_base_tax = -2
		}
	}
	if = {
		limit = { NOT = { base_tax = 75 } base_tax = 50 }
		random = {
			chance = 20
			add_base_tax = -3
		}
	}
	if = {
		limit = { NOT = { base_tax = 100 } base_tax = 75 }
		random = {
			chance = 20
			add_base_tax = -4
		}
	}
	if = {
		limit = { NOT = { base_tax = 125 } base_tax = 100 }
		random = {
			chance = 20
			add_base_tax = -5
		}
	}
	if = {
		limit = { NOT = { base_tax = 150 } base_tax = 125 }
		random = {
			chance = 20
			add_base_tax = -6
		}
	}
	if = {
		limit = { NOT = { base_tax = 175 } base_tax = 150 }
		random = {
			chance = 20
			add_base_tax = -7
		}
	}
	if = {
		limit = { NOT = { base_tax = 200 } base_tax = 175 }
		random = {
			chance = 20
			add_base_tax = -8
		}
	}
	if = {
		limit = { NOT = { base_tax = 250 } base_tax = 200 }
		random = {
			chance = 20
			add_base_tax = -9
		}
	}
	if = {
		limit = { base_tax = 250 }
		random = {
			chance = 20
			add_base_tax = -10
		}
	}
	every_neighbor_province = {
		limit = {
			NOT = { has_province_modifier = "sismic_chaos_mild" }
			NOT = { has_province_modifier = "sismic_chaos_major" }
		}
		add_province_modifier = { name = "sismic_chaos_mild" duration = 365 }
		if = {
			limit = { NOT = { base_tax = 100 } base_tax = 50 }
			random = {
				chance = 20
				add_base_tax = -1
			}
		}
		if = {
			limit = { NOT = { base_tax = 150 } base_tax = 100 }
			random = {
				chance = 20
				add_base_tax = -2
			}
		}
		if = {
			limit = { NOT = { base_tax = 200 } base_tax = 150 }
			random = {
				chance = 20
				add_base_tax = -3
			}
		}
		if = {
			limit = { NOT = { base_tax = 250 } base_tax = 200 }
			random = {
				chance = 20
				add_base_tax = -4
			}
		}
		if = {
			limit = { base_tax = 250 }
			random = {
				chance = 20
				add_base_tax = -5
			}
		}
		every_neighbor_province = { add_province_modifier = { name = "sismic_chaos_minor" duration = 365 } }
	}
}

storm_chaos_minor_effect = {
	every_province = {
		limit = {
			area = ROOT
			has_port = yes
		}
		add_province_modifier = { name = "storm_chaos_minor" duration = 365 }
	}
}

storm_chaos_mild_effect = {
	every_province = {
		limit = {
			region = ROOT
			has_port = yes
		}
		add_province_modifier = { name = "storm_chaos_mild" duration = 365 }
		every_neighbor_province = {
			limit = {
				area = ROOT
				NOT = { has_province_modifier = "storm_chaos_mild" }
			}
			add_province_modifier = { name = "storm_chaos_minor" duration = 365 }
		}
	}
}

storm_chaos_major_effect = {
	every_province = {
		limit = {
			region = ROOT
			has_port = yes
		}
		add_province_modifier = { name = "storm_chaos_major" duration = 365 }
		if = {
			limit = { base_tax = 100 }
			random = {
				chance = 20
				add_base_tax = -1
			}
		}
		every_neighbor_province = {
			limit = {
				region = ROOT
				NOT = { has_province_modifier = "storm_chaos_major" }
			}
			add_province_modifier = { name = "storm_chaos_mild" duration = 365 }
			every_neighbor_province = {
				limit = {
					region = ROOT
					NOT = { has_province_modifier = "storm_chaos_major" }
					NOT = { has_province_modifier = "storm_chaos_mild" }
				}
				add_province_modifier = { name = "storm_chaos_minor" duration = 365 }
			}
		}
	}
}

natural_disaster_help_effect = {
	every_owned_province  = {
		limit= { OR = { has_province_modifier = sismic_chaos_minor has_province_modifier = storm_chaos_minor } }
		owner = { add_treasury = -10 }
		add_province_modifier = { name = "ruler_help_minor" duration = 365 }
	}
	every_owned_province  = {
		limit= { OR = { has_province_modifier = sismic_chaos_mild has_province_modifier = storm_chaos_mild } }
		owner = { add_treasury = -25 }
		add_province_modifier = { name = "ruler_help_medium" duration = 365 }
	}
	every_owned_province  = {
		limit= { OR = { has_province_modifier = sismic_chaos_major has_province_modifier = storm_chaos_major } }
		owner = { add_treasury = -50 }
		add_province_modifier = { name = "ruler_help_major" duration = 365 }
	}
}

natural_disaster_overlord_help_effect = {
	every_owned_province  = {
		limit= { OR = { has_province_modifier = sismic_chaos_minor has_province_modifier = storm_chaos_minor } }
		owner = { overlord = { add_treasury = -10 } }
		add_province_modifier = { name = "overlord_help_minor" duration = 365 }
	}
	every_owned_province  = {
		limit= { OR = { has_province_modifier = sismic_chaos_mild has_province_modifier = storm_chaos_mild } }
		owner = { overlord = { add_treasury = -25 } }
		add_province_modifier = { name = "overlord_help_medium" duration = 365 }
	}
	every_owned_province  = {
		limit= { OR = { has_province_modifier = sismic_chaos_major has_province_modifier = storm_chaos_major } }
		owner = { overlord = { add_treasury = -50 } }
		add_province_modifier = { name = "overlord_help_major" duration = 365 }
	}
}

natural_disaster_relief_effect = {
	every_owned_province  = {
		limit= { OR = { has_province_modifier = sismic_chaos_minor has_province_modifier = storm_chaos_minor } }
		add_province_modifier = { name = "tax_relief_minor" duration = 365 }
	}
	every_owned_province  = {
		limit= { OR = { has_province_modifier = sismic_chaos_mild has_province_modifier = storm_chaos_mild } }
		add_province_modifier = { name = "tax_relief_medium" duration = 365 }
	}
	every_owned_province  = {
		limit= { OR = { has_province_modifier = sismic_chaos_major has_province_modifier = storm_chaos_major } }
		add_province_modifier = { name = "tax_relief_major" duration = 365 }
	}
}

natural_disaster_volcano_effect = {
	random_list = {
		60 = {
			add_province_modifier = { name = "volcanic_chaos_minor" duration = 365 }
			change_variable = { which = "normal_volcano_eruption" value = +1 }
		}
		20 = {
			add_province_modifier = { name = "volcanic_chaos_minor" duration = 730 }
			change_variable = { which = "sizable_volcano_eruption" value = +1 }
		}
		10 = {
			add_province_modifier = { name = "volcanic_chaos_minor" duration = 1095 }
			change_variable = { which = "long_volcano_eruption" value = +1 }
		}
		5 = {
			add_province_modifier = { name = "volcanic_chaos_minor" duration = 1825 }
			change_variable = { which = "very_long_volcano_eruption" value = +1 }
		}
		4 = {
			add_province_modifier = { name = "volcanic_chaos_mild" duration = 365 }
			change_variable = { which = "moderate_volcano_eruption" value = +1 }
		}
		1 = {
			add_province_modifier = { name = "volcanic_chaos_major" duration = 365 }
			change_variable = { which = "major_volcano_eruption" value = +1 }
		}
	}
}
