# 164 - Duchy of Naxos

owner = NAX
controller = NAX
culture = greek
religion = orthodox
capital = "Naxos"
trade_goods = wine
hre = no
base_tax = 4
base_production = 4
base_manpower = 3
is_city = yes
discovered_by = CIR
discovered_by = muslim
discovered_by = eastern
discovered_by = western
discovered_by = turkishtech

1088.1.1 = { dock = yes }
1356.1.1  = {
	add_core = NAX
	add_permanent_claim = MOE
	add_permanent_claim = BYZ
	set_province_flag = greek_name
}
1359.1.1  = {			#AdL: revival of romaion
	remove_core = BYZ
}
1359.1.2   = {
	add_core = BYZ		#AdL: revival of romaion
}
1444.1.1 = {
	remove_core = BYZ
}
1453.5.29  = {
	add_permanent_claim = TUR
}
1579.8.2  = {
	owner = TUR
	controller = TUR
	add_core = TUR
	remove_claim = TUR
	change_province_name = "Kiklad"
	rename_capital = "Naksa"
}

1770.6.11 = { controller = RUS } # Occupied by Russia
1774.7.21 = { controller = TUR }
1821.3.1  = {
	controller = REB
	add_core = GRE
}
1829.1.1  = {
	owner = GRE
	controller = GRE
}
1832.5.7  = {
	remove_core = TUR
} # Treaty of Constantinople
