#Province: Surubaya
#file name: 2105 - Surubaya
#MEIOU-FB Indonesia mod v3 - for IN+JV

owner = MPH
controller = MPH
culture = javan
religion = hinduism			#FB this region began to be Islamified c1500
capital = "Surubaya"
trade_goods = pepper
hre = no
base_tax = 9
base_production = 9
base_manpower = 5
is_city = yes
add_core = MPH
add_core = SBT
discovered_by = chinese
discovered_by = indian
discovered_by = austranesian

1421.1.1 = { temple = yes }
1478.1.1 = {
	owner = SBT
	controller = SBT
}
1512.1.1 = { discovered_by = POR religion = sunni }		#FB Antonio de Abreu

1515.2.1 = { training_fields = yes }
1613.1.1 = { discovered_by = NED } # The Dutch arrived
1625.1.1 = {
	owner = MTR
	controller = MTR
	remove_core = MPH
	unrest = 2
} # Mataram conquered Surabaya after 12+ years of struggle
1650.1.1 = { add_core = MTR unrest = 1 }
1657.1.1 = { unrest = 5 } # Amangkurat's murderous regime becomes increasingly unpopular
1676.10.15 = { controller = REB } #rebels defeat Mataram army at Gogodog
1677.7.13 = {
	controller = MTR
	unrest = 2
} # Amangkurat's death
#after 1680 MTR had little real control in this province
1717.1.1 = { controller = REB } #Surabaya rebellion/2nd war of Javanese Succession
1721.1.1 = { controller = MTR unrest = 1 } 
1740.10.1 = { unrest = 5 } #FB Chinese revolt following anti-Chinese riots in Batavia
1741.7.1 = { unrest = 1 } #FB Mataram joins forces with Chinese - revolt becomes war
1743.11.1 = { 
	owner = NED
	controller = NED
	unrest = 3
}
1745.2.1 = { controller = REB unrest = 4 } #Cakraningrat's revolt
1745.9.1 = { controller = NED unrest = 1 }
1746.5.1 = { unrest = 2 } #3rd war of Javanese Succession starts as rebellion
1757.3.1 = { unrest = 1 } #Mas Said submits
1800.1.1 = { add_core = NED unrest = 0 }
1811.9.1 = {
	owner = GBR
	controller = GBR
} # British take over
1816.1.1 = { owner = NED controller = NED } # Returned to the Dutch
