# 2541 - Angora

owner = CND
controller = CND
culture = turkish
religion = sunni
capital = "Tosya"
trade_goods = cloth
hre = no
base_tax = 4
base_production = 4
base_manpower = 3
is_city = yes
discovered_by = western
discovered_by = eastern
discovered_by = muslim
discovered_by = turkishtech
discovered_by = steppestech

1356.1.1  = {
	add_core = CND
	add_permanent_province_modifier = {
		name = "beylik_of_isfendiyar"
		duration = -1
	}
	set_province_flag = turkish_name
}
#1402.7.20 = { controller = TIM } # The ottomans are defeated at the Battle of Ankara

1444.1.1 = {
	add_core = TUR
}
1458.1.1  = {
	owner = TUR
	controller = TUR
	add_core = TUR
	culture = turkish
} # Conquered by the Ottomans
1461.1.1 = {
	remove_province_modifier = beylik_of_isfendiyar
}
1481.6.1  = { revolt = { type = pretender_rebels size = 0 } controller = REB } # Civil war, Bayezid & Jem
1482.7.26 = { revolt = {} controller = TUR } # Jem escapes to Rhodes
1509.1.1  = { revolt = { type = revolutionary_rebels size = 2 } controller = REB } # Civil war
1513.1.1  = { revolt = {} controller = TUR }
1515.1.1 = { training_fields = yes }
1530.1.4  = {
	bailiff = yes	
}

1623.1.1  = { revolt = { type = revolutionary_rebels size = 0 } controller = REB } # The empire fell into anarchy, Janissaries stormed the palace
1625.1.1  = { revolt = {} controller = TUR } # Murad tries to quell the corruption
1658.1.1  = { revolt = { type = revolutionary_rebels size = 0 } controller = REB } # Revolt of Abaza Hasan Pasha, centered on Aleppo, extending into Anatolia
1659.1.1  = { revolt = {} controller = TUR }
1700.1.1  = { fort_14th = yes  }

1745.1.1  = {  }
