# 2651 - Asir

owner = ANZ
controller = ANZ
culture = najdi
religion = sunni
capital = "Asir"
trade_goods = palm_date
hre = no
base_tax = 2
base_production = 2
base_manpower = 2
is_city = yes
discovered_by = muslim
discovered_by = turkishtech

1000.1.1 = {
	add_permanent_province_modifier = {
		name = oasis_route
		duration = -1
	}
}
1204.1.1 = {
	add_permanent_province_modifier = {
		name = arab_tribal_area
		duration = -1
	}
}
1356.1.1 = {
	add_core = ANZ
}
1744.1.1 = {
	religion = wahhabi
	owner = NAJ
	controller = NAJ
	add_core = NAJ
}
1818.9.9 = {
	owner = TUR
	controller = TUR 
} # The end of the Saudi State
