# No previous file for Indore

owner = MLW
controller = MLW
culture = malvi
religion = hinduism
capital = "Indore"
trade_goods = cloth
hre = no
base_tax = 10
base_production = 10
base_manpower = 4
is_city = yes
add_local_autonomy = 25
discovered_by = indian
discovered_by = muslim
discovered_by = turkishtech
discovered_by = steppestech

#1180.1.1 = { post_system = yes }
1199.1.1 = { road_network = yes }
1250.1.1 = { temple = yes }
1356.1.1 = {
	#add_core = DLH
	add_core = MLW
	unrest = 3
}
1401.1.1 = {
	owner = MLW
	controller = MLW
	remove_core = DLH
	unrest = 0
}
1498.1.1 = { discovered_by = POR }
1530.1.1 = { add_claim = GUJ }
1530.2.3 = {
	add_permanent_claim = MUG
}
1531.1.1 = {
	controller = GUJ
} # Conquered by Ahmad Shahis
1532.1.1 = {
	owner = GUJ
} # Conquered by Ahmad Shahis
1535.1.1 = {
	controller = MUG
} # Mughal campaign
1537.1.1 = {
	owner = MLW
	controller = MLW
} # Reverts to Gujarati control and granted independence
1543.1.1 = {
	owner = BNG
	controller = BNG
} # Conquered by Sher Shah Sur
1545.5.22 = {
	owner = MLW
	controller = MLW
} # Death of Sher Shah, governor declares independence
1561.3.1 = { controller = MUG } #Pir Mohammad Khan
1561.8.1 = { controller = MLW } #Baz Bahadur regains controll as Pir Mohammad Khan is recalled
1562.5.1 = { controller = MUG } #Reconquered by Akbar
1562.6.1 = {
	owner = MUG 
} # Annexed by Mughal Empire
1564.1.1 = { controller = REB revolt = { type = noble_rebels } }	#Revolt of Uzbek commanders in Malwa
1565.1.1 = { controller = MUG revolt = { } }	#Revolt beaten down
1600.1.1 = {
	
}
1612.6.1 = { add_core = MUG }

1724.1.1 = { add_core = MAR } # The Mughal state began to weaken
1735.1.1 = {
	owner = MAR
	controller = MAR
	remove_core = MUG
	fort_14th = yes
} # Malwa is ceded to the Marathas
1818.6.3 = {
	owner = GBR
	controller = GBR
	remove_core = MAR
}
