# No previous file for Comechingón

culture = het
religion = pantheism
capital = "Comechingón"
trade_goods = unknown
hre = no
base_tax = 1
base_production = 1
#base_manpower = 0.5
base_manpower = 1.0
native_size = 30
native_ferocity = 1
native_hostileness = 7	
discovered_by = south_american

1573.7.6  = {
	discovered_by = SPA
	add_core = SPA
	owner = SPA
	controller = SPA
	religion = catholic
	culture = castillian
	citysize = 500
	capital = "Cordobá"
	trade_goods = livestock
	set_province_flag = trade_good_set
}
1650.1.1   = {
	citysize = 1000
}
1700.1.1   = {
	 citysize = 2000
}
1750.1.1   = {
	unrest = 2
	citysize = 5000
   	add_core = LAP
	culture = platean
} # Spanish administration required all trade to pass via Lima, extracted taxes
1780.1.1   = {
	unrest = 4
} # The desire for independence grew
1790.1.1   = {
	unrest = 6
}
1800.1.1   = {
	citysize = 10000
}
1810.5.25  = {
	owner = LAP
	controller = LAP
	unrest = 0
}
1816.7.9   = {
	remove_core = SPA
}
