# No previous file for Al Muthanna

owner = JAI
controller = JAI
culture = iraqi
religion = sunni #Dei Gratia
capital = "Al Muthanna"
trade_goods = wool
hre = no
base_tax = 2
base_production = 2
base_manpower = 1
is_city = yes
discovered_by = muslim
discovered_by = western
discovered_by = eastern
discovered_by = turkishtech
discovered_by = steppestech

1204.1.1 = {
	add_permanent_province_modifier = {
		name = arab_tribal_area
		duration = -1
	}
}
1356.1.1   = {
	add_core = JAI
}
1401.6.1   = {
	controller = TIM
}
1402.1.1   = {
	controller = JAI
}
1403.1.1   = {
	controller = TIM
}
1405.2.20  = {
	controller = JAI
}
1409.1.1   = {
	add_core = AKK
}
1410.1.1   = {
	controller = QAR
}
1411.1.1   = {
	owner = QAR
}
1444.1.1 = {
	remove_core = JAI
}	
1444.1.1 = {
	add_core = IRQ
	remove_core = QAR
	add_core = AKK
}
1453.1.1   = { discovered_by = VEN }
1469.1.1   = {
	controller = AKK
}
1470.1.1   = {
	owner = AKK
}
1501.1.1   = {
	controller = SAM
}
1508.1.1   = {
	owner = SAM
}
1512.1.1  = {
	owner = PER
	controller = PER
	add_core = PER
	remove_core = QAR
	remove_core = AKK
	religion = shiite
	training_fields = yes
	bailiff = yes
	courthouse = yes
} # Safawids "form persia"
1529.1.1   = { revolt = { type = anti_tax_rebels } controller = REB } # Ottomans instigate rebellion
1530.1.1   = { revolt = {} controller = PER }
1530.1.1 = { add_permanent_claim = TUR } #As Caliph, duty to rescue Baghdad
1530.1.3 = {
	road_network = no paved_road_network = yes 
}
1534.11.28 = { controller = TUR } # Ottoman conquest
1535.1.1   = {	
	owner = TUR
	add_core = TUR
	remove_claim = TUR 
} # Annexed by the Ottomans
1624.1.1   = { controller = PER }
1638.1.1   = { controller = TUR }
