# Genoa Missions

retake_corsica = {
	
	type = country

	category = MIL
	ai_mission = yes
	
	allow = {
		tag = GEN
		is_subject = no
		OR = { 
			NOT = { owns = 1247 }		# Corsica
			NOT = { owns = 2851 }
		}
	}
	abort = {
		is_subject = yes
	}
	success = {
		owns = 1247
		owns = 2851
	}
	chance = {
		factor = 1000
		modifier = {
			factor = 2
			mil = 4
		}	
	}
	immediate = {
		add_claim = 1247
		add_claim = 2851
	}
	abort_effect = {
		remove_claim = 1247
		remove_claim = 2851
	}
	effect = {
		add_prestige = 10
		add_core = 1247
		add_core = 2851
		add_country_modifier = {
			name = "mediterranean_ambition"
			duration = 3650
		}
	}
}


retake_kaffa = {
	
	type = country

	category = MIL
	ai_mission = yes
	
	allow = {
		tag = GEN
		is_subject = no
		NOT = { owns = 2573 }		# Kaffa
		is_core = 2573
		NOT = { has_country_modifier = black_sea_ambition }
	}
	abort = {
		is_subject = yes
	}
	success = {
		owns = 2573
	}
	chance = {
		factor = 1000
		modifier = {
			factor = 2
			mil = 4
		}	
	}
	immediate = {
		add_claim = 2573
	}
	abort_effect = {
		remove_claim = 2573
	}
	effect = {
		add_prestige = 25
		add_adm_power = 50
		add_country_modifier = {
			name = "black_sea_ambition"
			duration = 3650
		}
	}
}


retake_azow = {
	
	type = country

	category = MIL
	ai_mission = yes
	
	allow = {
		tag = GEN
		is_subject = no
		NOT = { owns = 1298 }		# Azow
		is_core = 1298
		NOT = { has_country_modifier = black_sea_ambition }
	}
	abort = {
		OR = {
			is_subject = yes
			NOT = { is_core = 1298 }
		}
	}
	success = {
		owns = 1298
	}
	chance = {
		factor = 1000
		modifier = {
			factor = 2
			mil = 4
		}	
	}
	immediate = {
		add_claim = 1298
	}
	abort_effect = {
		remove_claim = 1298
	}
	effect = {
		add_adm_power = 50
		add_country_modifier = {
			name = "black_sea_ambition"
			duration = 3650
		}
	}
}


end_bosphorous_sound_toll = {

	type = country
	
	category = MIL
	
	allow = {
		tag = GEN
		government = merchant_republic
		is_subject = no
		NOT = { has_country_flag = black_sea_free_trade }
		NOT = { has_country_modifier = black_sea_ambition }
		OR = {
			owns = 1298
			owns = 2573
		}
		1402 = {
			owner = {
				has_country_modifier = bosphorous_sound_toll
				NOT = {
					tag = GEN
				}
			}
			NOT = {
				1402 = {
					has_trade_modifier = {
						who = GEN
						name = genoese_access_to_black_sea
					}
				}
			}
		}
	}
	abort = {
		is_subject = yes
	}
	success = {
		OR = {
			controls = 1402
			AND = {
				controls = 2238
				controls = 317
			}
		}
	}
	chance = {
		factor = 1000
		modifier = {
			factor = 2
			mil = 4
		}	
	}
	effect = {
		set_country_flag = black_sea_free_trade
		add_country_modifier = {
			name = "black_sea_ambition"
			duration = 3650
		}
		1914 = {
			add_trade_modifier = {
				who = ROOT
				duration = 3650
				power = 10
				key = genoese_trade_concession
			}
		}
	}
}

# Take a strategic tradenode

tradenode_tunis = {
	
	type = country
	
	category = MIL
	ai_mission = yes
	
	allow = {
		tag = GEN
		government = merchant_republic
		is_subject = no
		NOT = {
			owns = 341 # Tunis
		}
	}
	abort = {
		is_subject = yes
	}
	success = {
		owns = 341 # Tunis
	}
	chance = {
		factor = 1000
		modifier = {
			factor = 2
			mil = 4
		}
		modifier = {
			factor = 0.5
			341 = {
				owner = {
					army_size = GEN
				}
			}
		}
	}
	immediate = {
		add_claim = 341
	}
	abort_effect = {
		remove_claim = 341
	}
	effect = {
		add_mercantilism = 10
		add_country_modifier = {
			name = "mediterranean_ambition"
			duration = 1825
		}
		if = {
			limit = {
				341 = { NOT = { is_core = ROOT } }
			}
			341 = {
				add_province_modifier = {
					name = "gaining_control"
					duration = -1
				}
			}
		}
	}
}

tradenode_alexandria = {
	
	type = country
	
	category = MIL
	ai_mission = yes
	
	allow = {
		tag = GEN
		government = merchant_republic
		is_subject = no
		NOT = {
			owns = 358 #Alexandria
		}
		NOT = {
			any_known_country = {
				capital = 358
			}
		}
	}
	abort = {
		is_subject = yes
	}
	success = {
		owns = 358
	}
	chance = {
		factor = 1000
		modifier = {
			factor = 2
			mil = 4
		}
		
		modifier = {
			factor = 0.5
			358 = {
				owner = {
					army_size = GEN
				}
			}
		}
	}
	immediate = {
		add_claim = 358
	}
	abort_effect = {
		remove_claim = 358
	}
	effect = {
		add_mercantilism = 10
		add_country_modifier = {
			name = "mediterranean_ambition"
			duration = 1825
		}
		if = {
			limit = {
				358 = { NOT = { is_core = ROOT } }
			}
			358 = {
				add_province_modifier = {
					name = "gaining_control"
					duration = -1
				}
			}
		}
	}
}

tradenode_thrace = {
	
	type = country
	
	category = MIL
	ai_mission = yes
	
	allow = {
		tag = GEN
		government = merchant_republic
		is_subject = no
		NOT = {
			owns = 1402 # Thrace
		}
		NOT = {
			any_known_country = {
				capital = 1402 # Thrace
			}
		}
	}
	abort = {
		is_subject = yes
	}
	success = {
		owns = 1402 # Thrace
	}
	chance = {
		factor = 1000
		modifier = {
			factor = 2
			mil = 4
		}
		
		modifier = {
			factor = 0.5
			1402 = {
				owner = {
					army_size = GEN
				}
			}
		}
	}
	immediate = {
		add_claim = 1402
	}
	abort_effect = {
		remove_claim = 1402
	}
	effect = {
		add_mercantilism = 10
		add_country_modifier = {
			name = "mediterranean_ambition"
			duration = 1825
		}
		if = {
			limit = {
				1402 = { NOT = { is_core = ROOT } }
			}
			1402 = {
				add_province_modifier = {
					name = "gaining_control"
					duration = -1
				}
			}
		}
	}
}

tradenode_ragusa = {
	
	type = country
	
	category = MIL
	ai_mission = yes
	
	allow = {
		tag = GEN
		government = merchant_republic
		is_subject = no
		NOT = {
			owns = 137 # Ragusa
		}
		NOT = {
			any_known_country = {
				capital = 137 # Ragusa
			}
		}
	}
	abort = {
		is_subject = yes
	}
	success = {
		owns = 137 # Ragusa
	}
	chance = {
		factor = 1000
		modifier = {
			factor = 2
			mil = 4
		}
		
		modifier = {
			factor = 0.5
			137 = {
				owner = {
					army_size = GEN
				}
			}
		}
	}
	immediate = {
		add_claim = 137
	}
	abort_effect = {
		remove_claim = 137
	}
	effect = {
		add_mercantilism = 10
		add_country_modifier = {
			name = "mediterranean_ambition"
			duration = 1825
		}
		if = {
			limit = {
				137 = { NOT = { is_core = ROOT } }
			}
			137 = {
				add_province_modifier = {
					name = "gaining_control"
					duration = -1
				}
			}
		}
	}
}

tradenode_barcelona = {
	
	type = country
	
	category = MIL
	ai_mission = yes
	
	allow = {
		tag = GEN
		government = merchant_republic
		is_subject = no
		NOT = {
			owns = 213 # Barcelona
		}
		NOT = {
			any_known_country = {
				capital = 213
			}
		}
	}
	abort = {
		is_subject = yes
	}
	success = {
		owns = 213
	}
	chance = {
		factor = 1000
		modifier = {
			factor = 2
			mil = 4
		}
		
		modifier = {
			factor = 0.5
			213 = {
				owner = {
					army_size = GEN
				}
			}
		}
	}
	immediate = {
		add_claim = 213
	}
	abort_effect = {
		remove_claim = 213
	}
	effect = {
		add_mercantilism = 10
		add_country_modifier = {
			name = "mediterranean_ambition"
			duration = 1825
		}
		if = {
			limit = {
				213 = { NOT = { is_core = ROOT } }
			}
			213 = {
				add_province_modifier = {
					name = "gaining_control"
					duration = -1
				}
			}
		}
	}
}

tradenode_tangiers = {
	
	type = country
	
	category = MIL
	ai_mission = yes
	
	allow = {
		tag = GEN
		government = merchant_republic
		is_subject = no
		NOT = {
			owns = 334 # Tangiers
		}
		NOT = {
			any_known_country = {
				capital = 334 # Tangiers
			}
		}
	}
	abort = {
		is_subject = yes
	}
	success = {
		owns = 334 # Tangiers
	}
	chance = {
		factor = 1000
		modifier = {
			factor = 2
			mil = 4
		}
		
		modifier = {
			factor = 0.5
			334 = {
				owner = {
					army_size = GEN
				}
			}
		}
	}
	immediate = {
		add_claim = 334
	}
	abort_effect = {
		remove_claim = 334
	}
	effect = {
		add_mercantilism = 10
		add_country_modifier = {
			name = "mediterranean_ambition"
			duration = 1825
		}
		if = {
			limit = {
				334 = { NOT = { is_core = ROOT } }
			}
			334 = {
				add_province_modifier = {
					name = "gaining_control"
					duration = -1
				}
			}
		}
	}
}

tradenode_sevilla = {
	
	type = country
	
	category = MIL
	ai_mission = yes
	
	allow = {
		tag = GEN
		government = merchant_republic
		is_subject = no
		NOT = {
			owns = 2311		# Sevilla
		}
		NOT = {
			any_known_country = {
				capital = 2311
			}
		}
	}
	abort = {
		is_subject = yes
	}
	success = {
		owns = 2311
	}
	chance = {
		factor = 1000
		modifier = {
			factor = 2
			mil = 4
		}
		
		modifier = {
			factor = 0.5
			2311 = {
				owner = {
					army_size = GEN
				}
			}
		}
	}
	immediate = {
		add_claim = 2311
	}
	abort_effect = {
		remove_claim = 2311
	}
	effect = {
		add_mercantilism = 10
		add_country_modifier = {
			name = "mediterranean_ambition"
			duration = 1825
		}
		if = {
			limit = {
				2311 = { NOT = { is_core = ROOT } }
			}
			2311 = {
				add_province_modifier = {
					name = "gaining_control"
					duration = -1
				}
			}
		}
	}
}

tradenode_napoli = {
	
	type = country
	
	category = MIL
	ai_mission = yes
	
	allow = {
		tag = GEN
		government = merchant_republic
		is_subject = no
		NOT = {
			owns = 2531		# Napoli
		}
		NOT = {
			any_known_country = {
				capital = 2531
			}
		}
	}
	abort = {
		is_subject = yes
	}
	success = {
		owns = 2531
	}
	chance = {
		factor = 1000
		modifier = {
			factor = 2
			mil = 4
		}
		
		modifier = {
			factor = 0.5
			2531 = {
				owner = {
					army_size = GEN
				}
			}
		}
	}
	immediate = {
		add_claim = 2531
	}
	abort_effect = {
		remove_claim = 2531
	}
	effect = {
		add_mercantilism = 10
		add_country_modifier = {
			name = "mediterranean_ambition"
			duration = 1825
		}
		if = {
			limit = {
				2531 = { NOT = { is_core = ROOT } }
			}
			2531 = {
				add_province_modifier = {
					name = "gaining_control"
					duration = -1
				}
			}
		}
	}
}

