# D - Lithuania.txt
# 2011-jan-24 FB	added officials cost
# 2011-jun-27 FB	last_pagans_in_europe made religious decisions;
#		improvements to ask_union_lublin
# 2013-sep-23 GG	adapted to EUIV

country_decisions = {

	last_pagans_in_europe_catholic = {
	
		potential = {
			religion = baltic_pagan_reformed
			any_neighbor_country = {
				religion = catholic
			}
			OR = {
				is_year = 1400
				had_country_flag = { flag = lit_become_catholic days = 365 }
			}
		}

		allow = {
			adm_power = 100
			any_neighbor_country = {
				religion = catholic
				government = monarchy
				NOT = { war_with = ROOT }
			}
			OR = {
				any_neighbor_country = {
					OR = {
						NOT = { religion = catholic }
						tag = TEU
						tag = LVO
					}
					OR = {
						war_with = ROOT
						truce_with = ROOT
					}
				}
				had_country_flag = { flag = lit_become_catholic days = 365 }
			}
		}

		effect = {
			add_adm_power = -100
			hidden_effect = { 
				every_owned_province = {
					limit = {
						religion = baltic_pagan_reformed
					}
					change_variable = { which = converted_heathens value = 2 }
				}
			}
			change_religion = catholic
			swap_free_idea_group = yes
			subtract_stability_1 = yes
			every_neighbor_country = {
				limit = { religion = catholic }
				add_opinion = { who = ROOT modifier = opinion_improved_relations }
			}
			every_neighbor_country = {
				limit = { religion = orthodox }
				add_opinion = { who = ROOT modifier = opinion_displeased }
			}
		}

		ai_will_do = {
			factor = 1
			modifier = {
				ADM = 2
				NOT = { any_neighbor_country = { religion = catholic army_size = ROOT } }
				factor = 0
				}
			modifier = {
				factor = 0
				any_neighbor_country = {
					religion = orthodox
					alliance_with = ROOT
				}
			}
		}
	}

	last_pagans_in_europe_orthodox = {
	
		potential = {
			religion = baltic_pagan_reformed
			any_neighbor_country = {
				religion = orthodox
			}
			is_year = 1400
		}

		allow = {
			adm_power = 100
			any_neighbor_country = {
				religion = orthodox
				government = monarchy
				NOT = { war_with = ROOT }
			}
			OR = {
				any_neighbor_country = {
					OR = {
						NOT = { religion = orthodox }
						tag = TEU
						tag = LVO
					}
					OR = {
						war_with = ROOT
						truce_with = ROOT
					}
				}
			}
		}

		effect = {
			add_adm_power = -100
			hidden_effect = { 
				every_owned_province = {
					limit = {
						religion = baltic_pagan_reformed
					}
					change_variable = { which = converted_heathens value = 2 }
				}
			}
			change_religion = orthodox
			swap_free_idea_group = yes
			subtract_stability_1 = yes
			every_neighbor_country = {
				limit = { religion = orthodox }
				add_opinion = { who = ROOT modifier = opinion_improved_relations }
			}
			every_neighbor_country = {
				limit = { religion = catholic }
				add_opinion = { who = ROOT modifier = opinion_displeased }
			}
		}

		ai_will_do = {
			factor = 1
			modifier = {
				ADM = 2
				NOT = { any_neighbor_country = { religion = orthodox army_size = ROOT } }
				factor = 0
				}
			modifier = {
				factor = 0
				any_neighbor_country = {
					religion = catholic
					alliance_with = ROOT
				}
			}
		}
		
	}

	abrogate_kiev = {
		potential = {
			any_owned_province = {
				has_province_modifier = principality_of_kiev
				any_neighbor_province = {
					owned_by = ROOT
				}
			}
		}
		allow = {
			adm_tech = 16
			mil_power = 150
			num_of_owned_provinces_with = {
				value = 3
				region = ruthenia_region
			}
			owns = 280
			is_at_war = no
		}
		effect = {
			add_mil_power = -100
			every_province = {
				limit = {
					has_province_modifier = principality_of_kiev
				}
				remove_province_modifier = principality_of_kiev
			}
		}
		ai_will_do = {
		    factor = 1
		}
		ai_importance = 100
	}

	abrogate_chernigov = {
		potential = {
			any_owned_province = {
				has_province_modifier = principality_of_chernigov
				any_neighbor_province = {
					owned_by = ROOT
				}
			}
		}
		allow = {
			adm_tech = 8
			mil_power = 150
			num_of_owned_provinces_with = {
				value = 3
				region = ruthenia_region
			}
			owns = 280
			is_at_war = no
		}
		effect = {
			add_mil_power = -100
			every_province = {
				limit = {
					has_province_modifier = principality_of_chernigov
				}
				remove_province_modifier = principality_of_chernigov
			}
		}
		ai_will_do = {
		    factor = 1
		}
		ai_importance = 100
	}
}
