# Serenissima Music Decisions
#Ported by Sun_Wu

country_decisions = {

	introduce_opera = {
		potential = {
			NOT = { has_country_flag = cultural_decision_off }
			is_year = 1590
			technology_group = western
			OR = { 
				culture_group = latin 
				any_neighbor_country = { has_country_flag = opera_house }
				has_country_modifier = the_sound_of_music 
			} 
			NOT = { has_country_modifier = musica_in_opera }					   
		}
		allow = {
			prestige = 30
			years_of_income = 1
			advisor = composer
		}
		effect = {
			add_country_modifier = {
				name = "musica_in_opera"
				duration = -1
			}
			add_prestige = 10
			add_years_of_income = -1
		}
		ai_will_do = {
			factor = 1
		}
	}
	
	build_opera_house = {
		potential = {
			NOT = { has_country_flag = cultural_decision_off }
			has_country_modifier = musica_in_opera
			NOT = { has_country_flag = opera_house }
		}
		allow = {
			advisor = composer
			treasury = 300 
		}
		effect = {
			set_country_flag = opera_house
			every_province = {
					limit = {
							is_capital = yes
							owned_by = ROOT
					}
				add_province_modifier = {
					name = "opera_house"
					duration = -1
				}
			}
			add_treasury = -300
			add_prestige = 5
		}
		ai_will_do = {
			factor = 1
		}
	}

	new_opera = {
		potential = {
			NOT = { has_country_flag = cultural_decision_off }
			has_country_flag = opera_house
			has_country_modifier = musica_in_opera
			NOT = { has_country_modifier = opera_perfomance } 
			NOT = { has_country_modifier = working_on_opera }
			NOT = { has_country_modifier = working_on_madrigal }
		}
		allow = {
			advisor = composer
			years_of_income = 0.25
		}
		effect = {
			add_country_modifier = {
				name = "working_on_opera"
				duration = -1
			}
			add_years_of_income = -0.2
		}
		ai_will_do = {
			factor = 1
		}
	}
	
	cancionero_de_palacio = {
		potential = {
			NOT = { has_country_flag = cultural_decision_off }
			culture_group = iberian			
			is_year = 1470
			NOT = { has_country_modifier = cancionero_de_palacio }
			NOT = { has_global_flag = cancionero_de_palacio }			
		}
		allow = {
			advisor = composer
			treasury = 500
		}
		effect = {
			set_global_flag = cancionero_de_palacio
			add_country_modifier = {
				name = "cancionero_de_palacio"
				duration = -1
			}
			add_treasury = -500
		}
		ai_will_do = {
			factor = 1
		}
	}
	
	new_madrigal = {
		potential = {
			NOT = { has_country_flag = cultural_decision_off }
			has_global_flag = madrigal_invented
			NOT = { has_country_modifier = madrigal_perfomance } 
			NOT = { has_country_modifier = working_on_madrigal }
			NOT = { has_country_modifier = working_on_opera }
			NOT = { is_year = 1640 }
			technology_group = western
		}
		allow = {
			advisor = composer
			years_of_income = 0.2
		}
		effect = {
			add_country_modifier = {
				name = "working_on_madrigal"
				duration = -1
			}
			add_years_of_income = -0.15
		}
		ai_will_do = {
			factor = 1
		}
	}
}
