
#mytestgroup 
#	1 2 3
#}

suvarnabhumi_group = {
	3195 3903 2429 584 2428 580 3905 3904 2427 2425 
	352 3216 3217 585 3214 579 2823 2426 586 3215 582 
	581 2739 3197 583 3906 587 588 2424 2728 2727 2822 
	4046 590 3218 4043 3231 2829 3232 3934 611 3233 
	614 2320 2729 2730 615 3235 3234 2731 2325 600 602 
	2421 2825 2821 3909 2321 601 2422 3908 2670 3224 
	2324 2323 3907 2423 589 3220 2322 3219 4050 2420 
	3223 2668 603 2306 2820 3930 3221 4049 591 3222 
	593 592 2738 606 3229 2317 2318 3230 2397 607 2734 
	3313 3228 3227 2819 609 3226 2733 2826 608 2417 
	3931 3932 2827 604 3933 605 4047 407 597 3910 596 
	3239 2830 2101 2097 3913 617 2093 3912 3911 618 
	3915 2094 2095 3916 621 3919 620 3921 659 622 623 
	3918 2096 619 3914 2102 2103 3920 2100 3917 2099 
	3940 2098 
}

amazonia_group = {
	2076 2079 2081 2084 2077 2080 2087 748 3491 2752 
	1484 742 749 3490 3489 3488 751 3487 
}

pontus_group = {
	316 328 330 1298 1299 1326 1344 1437 1447 2274 
	2573 2574 3396 3795 3877 3881 
}

roman_asia_group = {
	317 318 1325 1438 1439 1446 2552 3386 3387 3388 
	3389 3390 
}


ostsiedlung_group = {
	40 41 42 4024 ## Eastern Prussia ##
	43 1391 1844 2355 2398 2845 4025 ## Western Prussia ##
	4003 4002 2561 ## Lower Silesia ##
	4001 1359 2633 2831 ## Middle Silesia ##
	1278 4000 3999 269 ## Upper Silesia ##
	60 3742 2620 ## Lusatia ##
	266 3748 2619 1277 ## Erzgebirge ##
	84 ## Holomúcko (Südetendland - Moravia ) ##
	3817 2843 47 ## Vorpommern ##
	2844 2847 2849 2850 48 ## Hinterpommern ##
	50 4015 72 3821 3745 2621 ## Mittelmark ##
	2835 264 ## Neumark ##
	#39 1264 1432 ## Kurland (Curonia) ##
	#38 ## Riga ##
	#36 ## Revel ##
	#1263 ## Dorpat ##
	#1265 1280 3397 ## Samogitia ##
	#272 296 3398 3764 ## Lithuania ##
	254 2401 2814 2834 3756 ## Posen(Wielkopolska) ##
	#2815 257 4026 2506 ## North Mazovia ##
	#3763 ## Bielsk (Podlasie ) ##
	128 2384 ## Koroska Stajerska (Austria ) ##
	267 3751 ## south bohemia ##
}

steppes_group = {
	286 287 303 1073 1076 1080 1081 1082 1083 1287 1293 
	1296 1297 1298 1299 1302 1303 1304 1306 1307 1308 
	1309 1310 1311 1312 2437 4016 2438 2439 2443 2444 
	2656 3286 3287 3310 3796
}

chinese_coast_group = {
	673 674 3939 675 676 677 678 679 680 692 694 696 697
	699 705 706 707 708 711 1041 1046 1053 1068 1089 2117 
	2121 2125 2141 2145 2147 2249 2272 4036 2486 2490 2492 
	2607 
}

indian_coast_group = {
	503 507 515 529 531 532 533 534 535 536 537 542 553 
	560 561 563 568 572 573 2245 2336 2337 2568 2569 2570 
	2627 2628 2629 2630 2672 2673 2710 2711 2712 2713 3124 
	3144 3145 3150 3151 3156 3157 3158 3159 3174 3175 3182 
	3190 3238
}

the_spanish_main_group = {
	741 743 744 827 829 831 835 836 838 842 845 846 848 853 
	858 892 926 927 929 931 1418 1456 1473 1474 1481 1709 
	1710 2165 2174 2411 2414 2416 2598 2643 2644 2647 2648 
	3499 3500 3501 3503 3504 3505 3507 3513 3514 3515 3520 
	3539 3552 3597 3598 3696 4040 4041 
}

small_island_group = {
	9 369 1250 1251 1417 1514 142 164 320 1435 3875 1436 2572 
	2358 420 421 574 1012 1013 1014 1021 1100 1101 1248 2276 
	2302 2525 2738 506 513 1097 1230 1231 1232 1233 1235 1239 
	1241 1243 1244 1246 1341 2065 2527 2589 2608 2610 368 481 
	493 494 496 1098 2592 2520 2609 874 1530 2192 
}

eastasian_trade_group = {
	407 503 507 515 529 531 532 533 534 535 536 537 538 542 553 
	560 561 563 568 572 573 579 585 586 590 591 592 593 594 595 
	596 597 598 599 603 605 606 607 610 613 617 618 619 620 621 
	622 623 624 625 626 627 628 629 630 636 637 638 639 640 659 
	673 674 3939 675 676 677 678 679 680 692 694 711 738 1046 
	1053 1068 1089 2089 2090 2091 2092 2093 2094 2095 2096 2097 
	2104 2105 2106 2107 2108 2109 2110 2111 2117 2121 2141 2145 
	2147 2245 2272 2306 2317 2318 2336 2337 2394 2396 2397 2417 
	2418 2419 2420 2426 2486 2490 2568 2569 2570 2627 2628 2629 
	2630 2668 2672 2673 2696 2710 2711 2712 2713 2734 2735 2736 
	2737 2738 2822 2823 2824 2828 2830 3124 3144 3145 3150 3151 
	3156 3157 3158 3159 3174 3175 3182 3190 3191 3214 3215 3221 
	3222 3223 3236 3237 3238 3239 3910 3313 3339 3340 
}

african_islands_group = {
	366 368 367 1096 1098 1099 2520 2751 2997 1100 1102 1103 1138 
	3816 1185 1186 1187 1188 1226 1227 1228 1518 1519 1521 1527 
	1528 3893 3894 3895 3896 3897 3898 3899 3942 
}

spice_islands_group = {
	633 645 646 647 648 649 716 907 1042 2430 2431
}

gujarat_group = {
	516 3124 2714 3125 515 2710 3199 2711 2568 3238 2712 2713 503 
}

berar_group = {
	2244 3166 2684 3163
}

ahmadnagar_group = {
	2243 3164 3146 529 2680 3144 3165
}

bijapur_group = {
	1587 2569 3145 3150 3147 530 2678 544 2677 3152 3149 2679 3148 531 3151 3153 532
}

golconda_group = {
	3160 3162 3161 545 546 507 543 2627 3174 553 2628 2672 3155 547 2630 3175
}

bidar_group = {
	2681 2212
}

punjab_group = {
	3109 2113 3102 2226 3108 2556 2722 3104 3103 2112 2721 511 3111 564 3106 510
}

savanur_group = {
	2677 544 3153 3152 3151 3155
}

india_charter = {
	420 421 448 451 503 504 505 507 508 509 510 511 512 514 515 516 517 518 519 520 521 522 523 524
	525 526 527 528 529 530 531 532 533 534 535 536 537 538 539 540 541 542 543 544 545 546 547 548
	549 550 552 553 554 555 556 557 558 559 560 561 562 563 564 565 566 567 568 569 570 571 572 573
	574 575 576 577 578 580 1101 1248 1520 1587 1588 2112 2113 2114 2115 2116 2163 2210 2211 2212
	2226 2243 2244 2245 2336 2337 2554 2555 2556 2557 2558 2568 2569 2570 2584 2627 2628 2629 2630
	2631 2632 2672 2673 2674 2675 2676 2677 2678 2679 2680 2681 2682 2683 2684 2685 2686 2687 2688
	2689 2690 2691 2692 2693 2694 2695 2696 2697 2698 2699 2700 2701 2702 2703 2704 2705 2706 2707
	2708 2709 2710 2711 2712 2713 2714 2715 2716 2717 2718 2719 2720 2721 2722 2723 3098 3099 3100
	3101 3102 3103 3104 3105 3106 3107 3108 3109 3110 3111 3112 3113 3114 3115 3116 3117 3118 3119
	3120 3121 3122 3123 3124 3125 3126 3127 3128 3129 3130 3131 3132 3133 3134 3135 3136 3137 3138
	3139 3140 3141 3142 3143 3144 3145 3146 3147 3148 3149 3150 3151 3152 3153 3154 3155 3156 3157
	3158 3159 3160 3161 3162 3163 3164 3165 3166 3167 3168 3169 3170 3171 3172 3173 3174 3175 3176
	3177 3178 3179 3180 3181 3182 3183 3184 3185 3186 3187 3188 3189 3190 3191 3192 3193 3194 3195
	3196 3198 3199 3200 3201 3202 3203 3204 3205 3206 3238 3704 3834 4056 4078 4079
}

great_wall_group = {
	706 708 709 2162 2247 2251 2254 2257 2468
}

kingdom_of_hungary_group = {
	135 2846 2436 133 3769 153 1404 1859 1273 3789 1271 2275 1267 3772 1275 3770 3771 1270 1282 1406 3755 3754 
	1276 1272 3753 1274 3788 1405 162 3790 2375 158 2389 131 152 2390 1450 1403 2388
}

volcano_group = {
	124 370 371 495 497 498 499 500 506 513 650 653 654 658 773 777 782 783 784 787 
	793 795 797 804 806 809 811 812 813 816 819 820 823 826 834 835 836 839 840 841 
	844 847 849 850 851 852 854 856 859 862 864 865 866 868 871 872 874 875 878 972 
	975 977 978 979 1015 1016 1017 1018 1019 1020 1022 1023 1024 1025 1034 1035 1036 
	1106 1107 1230 1231 1232 1233 1235 1236 1237 1238 1239 1240 1241 1242 1243 1244 
	1246 1341 1466 1467 1468 1470 1471 1475 1491 1530 1711 1733 1734 1735 1824 2065 
	2066 2067 2068 2069 2070 2151 2184 2185 2186 2188 2189 2190 2191 2192 2193 2194 
	2200 2202 2203 2204 2205 2206 2207 2216 2217 2279 2280 2281 2282 2286 2287 2288 
	2289 2290 2292 2293 2294 2295 2296 2297 2299 2300 2302 2339 2340 2342 2343 2346 
	2349 2403 2405 2406 2407 2408 2409 2410 2531 2587 2588 2590 2594 2595 2599 2600 
	2277 2601 2604 2608 2610 2640 2641 2642 2645 3343 3344 3946 3948 3949 3950 3951 
	3955 3956 3968 3971 3972 3973 3974 
}

sismic_group = {
	68
	101 102 103 104 105 106 107 108 109 110 111 112 113 114 115 116 117 118
	119 120 121 122 123 124 125 126 127 129 130 131 136 137 138 139 140 142
	144 145 146 147 148 149 151 154 155 156 163 164 179 181 185 196 197
	200 201 202 203 204 205 210 211 212 213 214 220 221 222 223 224 225 226
	227 228
	316 317 318 319 320 321 322 323 324 325 326 327 328 329 330 331 332 333
	334 335 336 337 338 339 340 341 343 344 346 347 349 350 351 353 354 359
	364 370 371 377 378 379 382 387 390 392
	405 407 410 411 412 413 414 416 417 418 419 420 422 423 426 432 433 436
	444 445 446 447 448 449 450 451 452 453 454 455 457 458 460 463 476 482
	483 484 485 486 487 488 489 490 491 492 493 494 495 496 497 498 499
	500 501 502 505 506 508 509 510 511 513 521 522 523 551 554 557 562 564
	565 566 571 574 575 576 577 578 591 592 593 594 595 596 597 598 599
	617 618 619 620 621 622 623 624 625 626 627 628 629 630 631 632 633 634
	635 636 637 638 639 640 641 642 643 644 645 646 647 648 649 650 651 652
	653 654 655 656 657 658 659 666 673 674 3939 675 676 677 678 679 680 681 692
	693 694 695 696 697 698 699
	705 706 707 708 710 711 714 716 729 738
	739 773 777 782 783 784 787 792 793 795 796 797 798 799
	804 805 806 807 808 809 810 811 812 813 814 815 816 817 818 819 820 822
	823 824 826 827 829 831 832 834 835 836 837 838 839 840 841 842 843 844
	845 846 847 848 849 850 851 852 854 855 856 857 859 860 861 862 864 865
	866 867 868 869 870 871 872 873 874 875 876 877 878 879 880 881 882 883
	907 972 975 976 977 978 979
	1012 1013 1014 1015 1016 1017 1018 1019 1020 1021 1022 1023 1024 1025 1026
	1027 1028 1029 1030 1031 1032 1033 1034 1035 1036 1037 1038 1039 1040 1041
	1042 1044 1046 1047 1049 1050 1053 1068 1084 1085 1087 1089 1090 1091 1092
	1093 1094 1097 1098
	1106 1107 1108 1109 1150 1151 1153 1179 1192 1193 1197
	1202 1203 1205 1206 1207 1230 1231 1232 1233 1234 1235 1236 1237 1238 1239
	1240 1241 1242 1243 1244 1245 1246 1247 1249 1268 1284 1285 3870
	1300 1301 1313 1314 1315 1316 1317 1318 1319 1320 1321 1322 1323 1324 1325
	1326 1327 1328 1329 1331 1333 1334 1337 1340 1341 1345 2372 1346 3866 1347 1348
	1355 1375 1376 1377 1378 3867 1379 1380 3868 1382 1383 1385 1390 1392 1396 1397 1399
	1401 1402 1403 1407 1408 1413 1414 1415 1420 1424 1425 1426 1434 1435 3875 1436
	1437 1438 1439 1440 1441 1442 1443 1444 1445 1446 1447 1449 1466 1467 1468
	1469 1470 1471 1472 1473 1474 1475 1477 1491
	1512 3860 1513 1515 1522 1530 1532 1533 1534 1535 1536 1537 1538 1539 1540 1567
	1568 1569 1570 1574 1575 1576 1577 1578 1579 1585 1591
	1642
	1709 1710 1711 1733 1734 1735 1755 1767
	1821 1822 1824 1845 1858
	2065 2066 2067 2068 2069 2070 2088 2089 2090 2091 2092 2093 2094 2095 2096
	2097 2098 2099
	2100 2101 2102 2103 2104 2105 2106 2107 2108 2109 2110 2111 2112 2113 2114
	2115 2116 2117 2118 2119 2120 2121 2122 2123 2124 2125 2128 2129 2131 2132
	2133 2134 2135 2136 2137 2138 2139 2141 2142 2145 2147 2150 2151 2162 2163
	2165 2166 2170 2184 2185 2186 2188 2189 2190 2191 2192 2193 2194
	2200 2201 2202 2203 2204 2205 2206 2207 2208 2209 2213 2214 2215 2216 2217
	2219 2220 2224 2225 2226 2227 2230 2231 2237 2238 2241 2242 2248
	2255 2256 2257 2258 2259 2260 2261 2262 2263 2264 2268 2269 2272 2277
	2278 2279 2280 2281 2282 2283 2284 2285 2286 2287 2288 2289 2290 2291 2292
	2293 2294 2295 2296 2297 2298 2299
	2300 2301 2302 2303 2304 2305 2310 2311 2314 2315 2335 2338 2339 2340
	2341 2342 2343 2344 2345 2346 2347 2348 2349 2350 2351 2357 2358 2361 2368
	2369 2371 2373 2374 2384 2387 2388 2389 2392
	2402 2403 2404 2405 2406 2407 2408 2409 2410 2411 2412 2413 2414 2415 2416
	2420 2430 2431 2432 2433 2434 2435 2452 2453 2463 2464 2484 2486 2488 2490
	2492 2493 2494
	2501 2514 2520 2525 2527 2528 2530 2531 2532 2533 2534 2540 2541 2542 2550
	2551 2552 2553 2556 2559 2562 2563 2564 2565 2567 2571 2572 2574 2575 2576
	2577 2581 2584 2585 2586 2587 2588 2589 2590 2591 2592 2593 2594 2595 2596
	2597 2598 2599 2600 2601 2602 2603 2604 2606 2607 2608 2610 2611 2624 2625
	2634 3887 2635 2636 2640 2641 2642 2643 2644 2645 2646 2647 2648 2654 2655 2662
	2663 2664 2691 2692
	2700 2701 2716 2717 2718 2719 2720 2721 2722 2724 2726 2735 2736 2737 2738
	2740 2741 2742 2743 2744 2745 2746 2748 2749 2750 2796 2797
	2824 2828 2830 2851 2852 2853 2854 2855
	2856 2857 2858 2859 2860 2861 2862 2863 2864 2865 2866 2867 2868 2869 2896
	2933 2940 2941 2942 2943 2944 2962 2971 2972
	3006 3007 3008 3011 3012 3013 3014 3015 3017 3018 3019 3020 3040 3041 3042
	3043 3045 3066 3067 3078 3079 3080 3081 3082 3083 3084 3087 3088 3089 3090
	3091 3092 3093 3094 3095 3096 3097 3098 3099
	3100 3101 3102 3103 3104 3105 3106 3107 3108 3109 3110 3111 3112 3113 3114
	3193 3198
	3205 3206 3207 3208 3209 3210 3211 3213 3222 3236 3237 3239 3910  3240
	3247 3248 3249 3250 3275 3280 3282 3288 3289 3290 3291
	3292 3293 3294
	3300 3848 3301 3302 3315 3339 3340 3341 3342 3343 3344 3345 3357 3358 3359 3366
	3367 3368 3371 3377 3381 3382 3383 3384 3385 3386 3387 3388 3389 3390 3391
	3392 3393 3394 3395 3396
	3402 3403 3404 3405 3406 3407 3408 3409 3410 3411 3412 3413 3414 3415 3416
	3417 3418 3419 3420 3421 3422 3423 3424 3425 3426 3427 3428 3429 3430 3431
	3432 3433 3434 3435 3436 3437 3438 3439 3440 3441 3442 3443 3444 3445
	3500 3501 3503 3504 3505 3506 3507 3508 3509 3510 3511 3512 3513 3514 3515
	3516 3517 3518 3519 3520 3521 3522 3523 3524 3525 3526 3527 3528 3529 3530
	3531 3532 3533 3534 3535 3536 3537 3538 3540 3541 3542 3543 3544 3546 3697 
	3698 3699 3700 3701 3702 3703 3878 3879 3882 3883 
	3670 3671 3672 3673 3676 3677 3679 3680 3681 3682 3683 3684 3685 3686 3687
	3688 3689 3690 3943 3944 3945 3946 3947 3948 3949 3950 3951 3952 3953 3954 
	3955 3956 3957 3958 3959 3960 3961 3962 3963 3964 3965 3966 3967 3968 3969 
	3970 3971 3972 3973 3974 
}

theme_system_group = {
	1402 2552 317 238 1446 316 1447 1437 1441 1439 327 329 1440 1443 1438 
	318 319 1442 324 326 323 331 330 2574 2540 1333 1326 325 2542 163 164 
	2553 1325 1435 322 328 2664 2572 320 321 2750 2749 2541 332 378 377 
	1334 2635 364 2634 379 1755 3875 4059 4060 4061 4062 4063 4064 4065 
	4066 3388 3386 4067 3390 3881 3387 3389 3391 3878 3883 3392 3879 3882 
	3393 3884 3396 3803 3802 3395 2551 3093 1444 3394 418 4028 4029 151 
	3876 2501 2380 3782 159 2381 1427 3781 150 1848 3780 1591 157 3776 2382 
	1426 3779 155 2387 147 2124 2137 148 1401 3871 149 3385 3872 146 1434 
	154 1399 1436 3874 1425 3873 145 3384 3383 2655 2224 3885 3091 1319 
	3886 1327 1328 4058 382 4057 2636 1331 2575 
}

aquitaine_group = {
	176 1381 175 3372 174 194 179 3371 1323 3373 173 2234 180 
}
