# GOR - Gorizia

government = feudal_monarchy government_rank = 1
mercantilism = 0.0
primary_culture = austrian
religion = catholic
technology_group = western
capital = 1355

historical_friend = HAB
historical_rival = AQU

1000.1.1  = {
	set_variable = { which = "centralization_decentralization" value = 0 }
}

1304.1.1 = {
	monarch = {
		name = "Heinrich III"
		dynasty = "von Meinhardin"
		ADM = 4
		DIP = 4
		MIL = 4
	}
}

1323.1.1 = {
	monarch = {
		name = "Johann Heinrich"
		dynasty = "von Meinhardin"
		ADM = 4
		DIP = 4
		MIL = 4
	}
}

1327.1.1 = {
	monarch = {
		name = "Heinrich IV"
		dynasty = "von Meinhardin"
		ADM = 4
		DIP = 4
		MIL = 4
	}
}

1362.1.1 = {
	monarch = {
		name = "Meinhard V"
		dynasty = "von Meinhardin"
		ADM = 4
		DIP = 4
		MIL = 4
	}
}

1385.1.1 = {
	monarch = {
		name = "Heinrich V"
		dynasty = "von Meinhardin"
		ADM = 4
		DIP = 4
		MIL = 4
	}
}

1454.1.1 = {
	monarch = {
		name = "Leonhard"
		dynasty = "von Meinhardin"
		ADM = 4
		DIP = 4
		MIL = 4
	}
}
