# No previous file for Harar

government = despotic_monarchy government_rank = 2
mercantilism = 0.0
technology_group = east_african
unit_type = soudantech
religion = sunni
primary_culture = somali
capital = 3041	# Deker, Harer

1000.1.1  = {
	add_country_modifier = {
		name = "concubinage"
		duration = -1
	}
	set_variable = { which = "centralization_decentralization" value = 5 }
}
1552.1.1 = {
	monarch = {
		name = "Nur"
		dynasty = "Karanle"
		adm = 0
		dip = 1
		mil = 3
	}
}

1567.1.1 = {
	monarch = {
		name = "Isman"
		dynasty = "Karanle"
		adm = 0
		dip = 1
		mil = 1
	}
}

1569.1.1 = {
	monarch = {
		name = "Talha"
		dynasty = "Karanle"
		adm = 1
		dip = 0
		mil = 1
	}
}

1571.1.1 = {
	monarch = {
		name = "Nassir"
		dynasty = "Karanle"
		adm = 0
		dip = 0
		mil = 1
	}
}

1572.1.1 = {
	monarch = {
		name = "Mohammed"
		dynasty = "Karanle"
		adm = 1
		dip = 0
		mil = 0
	}
}

1573.1.1 = {
	monarch = {
		name = "Mansur"
		dynasty = "Karanle"
		adm = 2
		dip = 1
		mil = 1
	}
}

#Refounded as Emir of Harar

1647.1.1 = {
	monarch = {
		name = "Ali"
		dynasty = "Harari"
		adm = 0
		dip = 2
		mil = 1
	}
}

1662.1.1 = {
	monarch = {
		name = "Hashim"
		dynasty = "Harari"
		adm = 1
		dip = 1
		mil = 1
	}
}

1671.1.1 = {
	monarch = {
		name = "Abdullah"
		dynasty = "Harari"
		adm = 1
		dip = 1
		mil = 0
	}
}

1700.1.1 = {
	monarch = {
		name = "Talha"
		dynasty = "Harari"
		adm = 1
		dip = 1
		mil = 0
	}
}

1721.1.1 = {
	monarch = {
		name = "Abubakar"
		dynasty = "Harari"
		adm = 1
		dip = 1
		mil = 0
	}
}

1732.1.1 = {
	monarch = {
		name = "Khalaf"
		dynasty = "Harari"
		adm = 1
		dip = 0
		mil = 0
	}
}

1733.1.1 = {
	monarch = {
		name = "Hamid"
		dynasty = "Harari"
		adm = 0
		dip = 1
		mil = 1
	}
}

1747.1.1 = {
	monarch = {
		name = "Yusuf"
		dynasty = "Harari"
		adm = 0
		dip = 2
		mil = 0
	}
}

1755.1.1 = {
	monarch = {
		name = "Ahmed"
		dynasty = "Harari"
		adm = 1
		dip = 0
		mil = 0
	}
}

1782.1.1 = {
	monarch = {
		name = "Mahamed"
		dynasty = "Harari"
		adm = 1
		dip = 1
		mil = 0
	}
}

1783.1.1 = {
	monarch = {
		name = "Abdalshakur"
		dynasty = "Harari"
		adm = 1
		dip = 1
		mil = 0
	}
}

1794.1.1 = {
	monarch = {
		name = "Ahmed"
		dynasty = "Harari"
		adm = 1
		dip = 1
		mil = 0
	}
}

1821.1.1 = {
	monarch = {
		name = "Abdulrahman"
		dynasty = "Harari"
		adm = 0
		dip = 1
		mil = 2
	}
}
