# HKA - Hessen-Kassel

government = feudal_monarchy government_rank = 1	#FB TESTING
#FB government = feudal_monarchy government_rank = 3
mercantilism = 0.0
primary_culture = hessian
religion = catholic
technology_group = western
capital = 79	# Kassel

1000.1.1  = {
	set_variable = { which = "centralization_decentralization" value = 4 }
}

1328.11.7 = {
	monarch = {
		name = "Heinrich II"
		dynasty = "von Hessen"
		ADM = 3
		DIP = 3
		MIL = 4
	}
	heir = {
		name = "Hermann"
		monarch_name = "Hermann II"
		birth_date = 1320.1.1
		death_date = 1413.1.1
		claim = 95
		ADM = 4
		DIP = 3
		MIL = 3
	}
}

1376.1.1 = {
	monarch = {
		name = "Hermann II"
		dynasty = "von Hessen"
		ADM = 2
		DIP = 3
		MIL = 3
	}
}

1402.2.6 = {
	heir = {
		name = "Ludwig"
		monarch_name = "Ludwig"
		dynasty = "von Hessen"
		birth_date = 1402.2.6
		death_date = 1458.1.17
		claim = 95
		ADM = 4
		DIP = 3
		MIL = 3
	}
}

1413.1.1 = {
	monarch = {
		name = "Ludwig"
		dynasty = "von Hessen"
		ADM = 4
		DIP = 3
		MIL = 3
	}
}

1438.9.7 = {
	heir = {
		name = "Ludwig"
		monarch_name = "Ludwig II"
		dynasty = "von Hessen"
		birth_date = 1438.9.7
		death_date = 1471.11.8
		claim = 95
		ADM = 4
		DIP = 4
		MIL = 1
	}
}

1458.1.18 = {
	monarch = {
		name = "Ludwig II"
		dynasty = "von Hessen"
		ADM = 4
		DIP = 4
		MIL = 1
	}
}

1466.7.4 = {
	heir = {
		name = "Wilhelm"
		monarch_name = "Wilhelm"
		dynasty = "von Hessen"
		birth_date = 1466.7.4
		death_date = 1515.2.8
		claim = 95
		ADM = 5
		DIP = 3
		MIL = 3
	}
}

1471.11.9 = {
	monarch = {
		name = "Wilhelm"
		dynasty = "von Hessen"
		ADM = 5
		DIP = 3
		MIL = 3
	}
}

1471.11.9 = {
	heir = {
		name = "Wilhelm"
		monarch_name = "Wilhelm II"
		dynasty = "von Hessen"
		birth_date = 1469.4.29
		death_date = 1509.7.11
		claim = 95
		ADM = 2
		DIP = 2
		MIL = 4
	}
}

1493.6.4 = {
	monarch = {
		name = "Wilhelm II"
		dynasty = "von Hessen"
		ADM = 2
		DIP = 2
		MIL = 4
	}
}

1504.11.13 = {
	heir = {
		name = "Philipp"
		monarch_name = "Philipp"
		dynasty = "von Hessen"
		birth_date = 1504.11.13
		death_date = 1567.3.31
		claim = 95
		ADM = 1
		DIP = 4
		MIL = 5
	}
}

1509.7.12 = {
	monarch = {
		name = "Philipp"
		dynasty = "von Hessen"
		ADM = 1
		DIP = 4
		MIL = 5
	}
}

1510.1.1 = { leader = {	name = "Philipp"               	type = general	rank = 0	fire = 3	shock = 4	manuever = 4	siege = 0	death_date = 1560.1.1 } }

1527.1.1 = {
	religion = protestant
	}

1532.6.24 = {
	heir = {
		name = "Wilhelm"
		monarch_name = "Wilhelm IV"
		dynasty = "von Hessen-Kassel"
		birth_date = 1532.6.24
		death_date = 1592.8.25
		claim = 95
		ADM = 1
		DIP = 4
		MIL = 4
	}
}

1567.3.30 = {
	monarch = {
		name = "Wilhelm IV"
		dynasty = "von Hessen-Kassel"
		ADM = 1
		DIP = 4
		MIL = 4
	}
}

1572.5.25 = {
	heir = {
		name = "Moritz"
		monarch_name = "Moritz"
		dynasty = "von Hessen-Kassel"
		birth_date = 1572.5.25
		death_date = 1632.3.15
		claim = 95
		ADM = 2
		DIP = 2
		MIL = 1
	}
}

1592.8.26 = {
	monarch = {
		name = "Moritz"
		dynasty = "von Hessen-Kassel"
		ADM = 2
		DIP = 2
		MIL = 1
	}
}

1602.2.13 = {
	heir = {
		name = "Wilhelm"
		monarch_name = "Wilhelm V"
		dynasty = "von Hessen-Kassel"
		birth_date = 1602.2.13
		death_date = 1637.9.21
		claim = 95
		ADM = 4
		DIP = 5
		MIL = 2
	}
}

1608.5.14 = {
	join_league = protestant
}

1621.1.1 = { leader = {	name = "Eberstein"             	type = general	rank = 0	fire = 3	shock = 2	manuever = 3	siege = 0	death_date = 1651.1.1 } }

1627.3.18 = {
	monarch = {
		name = "Wilhelm V"
		dynasty = "von Hessen-Kassel"
		ADM = 4
		DIP = 5
		MIL = 2
	}
}

1629.5.23 = {
	heir = {
		name = "Wilhelm"
		monarch_name = "Wilhelm VI"
		dynasty = "von Hessen-Kassel"
		birth_date = 1629.5.23
		death_date = 1663.7.16
		claim = 95
		ADM = 1
		DIP = 2
		MIL = 4
	}
}

1637.9.22 = {
	monarch = {
		name = "Wilhelm VI"
		dynasty = "von Hessen-Kassel"
		ADM = 1
		DIP = 2
		MIL = 4
	}
}

1648.10.24 = {
	leave_league = protestant
}

1651.6.21 = {
	heir = {
		name = "Wilhelm"
		monarch_name = "Wilhelm VII"
		dynasty = "von Hessen-Kassel"
		birth_date = 1651.6.21
		death_date = 1670.11.21
		claim = 95
		ADM = 4
		DIP = 5
		MIL = 5
	}
}

1663.7.17 = {
	monarch = {
		name = "Wilhem VII"
		dynasty = "von Hessen-Kassel"
		ADM = 4
		DIP = 5
		MIL = 5
	}
}

1663.7.17 = {
	heir = {
		name = "Karl"
		monarch_name = "Karl"
		dynasty = "von Hessen-Kassel"
		birth_date = 1654.8.3
		death_date = 1730.3.23
		claim = 95
		ADM = 1
		DIP = 1
		MIL = 5
	}
}

1670.9.22 = {
	monarch = {
		name = "Karl"
		dynasty = "von Hessen-Kassel"
		ADM = 1
		DIP = 1
		MIL = 5
	}
}

1676.4.28 = {
	heir = {
		name = "Fredrik"
		monarch_name = "Fredrik"
		dynasty = "von Hesse-Kassel"
		birth_date = 1676.4.28
		death_date = 1751.4.5
		claim = 95
		ADM = 4
		DIP = 3
		MIL = 5
	}
}

1690.1.1 = { leader = {	name = "von Darmstadt"         	type = general	rank = 0	fire = 3	shock = 2	manuever = 3	siege = 2	death_date = 1730.1.1 } }

1730.3.24 = {
	monarch = {
		name = "Fredrik"
		ADM = 3
		DIP = 5
		MIL = 2
	}
}

1740.1.1 = { leader = {	name = "Hesse"                 	type = general	rank = 0	fire = 3	shock = 3	manuever = 3	siege = 0	death_date = 1755.1.1 } }

1751.3.26 = {
	monarch = {
		name = "Wilhem VIII"
		dynasty = "von Hessen-Kassel"
		ADM = 3
		DIP = 4
		MIL = 1
	}
	heir = {
		name = "Friedrich"
		monarch_name = "Friedrich II"
		dynasty = "von Hessen-Kassel"
		birth_date = 1720.8.14
		death_date = 1785.10.31
		claim = 95
		ADM = 4
		DIP = 4
		MIL = 3
	}
}

1760.1.1 = { leader = {	name = "W. von Knyphausen"        	type = general	rank = 0	fire = 3	shock = 3	manuever = 3	siege = 0	death_date = 1800.1.1 } }

1760.2.1 = {
	monarch = {
		name = "Friedrich II"
		dynasty = "von Hessen-Kassel"
		ADM = 4
		DIP = 4
		MIL = 3
	}
	heir = {
		name = "Wilhelm"
		monarch_name = "Wilhelm IX"
		dynasty = "von Hessen-Kassel"
		birth_date = 1743.6.3
		death_date = 1821.2.27
		claim = 95
		ADM = 4
		DIP = 4
		MIL = 3
	}
}

1785.10.30 = {
	monarch = {
		name = "Wilhelm IX"
		dynasty = "von Hessen-Kassel"
		ADM = 4
		DIP = 4
		MIL = 3
	}
	heir = {
		name = "Wilhelm"
		monarch_name = "Wilhelm II"
		dynasty = "von Hessen-Kassel"
		birth_date = 1777.7.28
		death_date = 1847.11.20
		claim = 95
		ADM = 3
		DIP = 2
		MIL = 1
	}
}

1803.2.25 = { elector = yes }

1806.7.12 = { elector = no } # The HRE is formally abolished
