government = tribal_monarchy government_rank = 3
primary_culture = luba
religion = animism
technology_group = central_african
unit_type = sub_saharan
capital = 1184

1000.1.1 = {
	add_country_modifier = {
		name = "concubinage"
		duration = -1
	}
	set_variable = { which = "centralization_decentralization" value = 5 }
}

1440.1.1 = { #Fictional
	monarch = {
		name = "Tambwe Kabongo"
		dynasty = "Luba"
		adm = 2
		dip = 2
		mil = 2
	}
}

1510.1.1 = { #Fictional
	monarch = {
		name = "Fumu Mikombe"
		dynasty = "Luba"
		adm = 2
		dip = 1
		mil = 3
	}
}

1550.1.1 = { #Fictional
	monarch = {
		name = "Mulopwe Mitonga"
		dynasty = "Luba"
		adm = 2
		dip = 1
		mil = 1
	}
}

1585.1.1 = {
	monarch = {
		name = "Kongolo Maniema"
		dynasty = "Luba"
		adm = 2
		dip = 0
		mil = 2
	}
}

1630.1.1 = {
	monarch = {
		name = "Kalala Ilunga"
		dynasty = "Luba"
		adm = 4
		dip = 3
		mil = 5
	}
}

1700.1.1 = { #Fictional
	monarch = {
		name = "Nday"
		dynasty = "Luba"
		adm = 2
		dip = 3
		mil = 2
	}
}

1750.1.1 = { #Fictional
	monarch = {
		name = "Kitamba"
		dynasty = "Luba"
		adm = 3
		dip = 3
		mil = 2
	}
}

1790.1.1 = {
	monarch = {
		name = "Ilunga Sungu"
		dynasty = "Luba"
		adm = 2
		dip = 3
		mil = 4
	}
}