#SIA - Siam

government = eastern_monarchy government_rank = 5
mercantilism = 0.0
primary_culture = thai
religion = buddhism
technology_group = chinese
capital = 2306	# Thonburi,(Bangkok)

1000.1.1 = {
	add_country_modifier = {
		name = "concubinage"
		duration = -1
	}
	set_variable = { which = "centralization_decentralization" value = 2 }
}

1350.1.1 = {
    monarch = {
        name = "Ramathibodi I"
        dynasty = "Uthong"
        ADM = 5
        DIP = 6
        MIL = 5
        leader = { name = "Ramathibodi" type = general rank = 0 fire = 3 shock = 5 manuever = 3 siege = 1 }
    }
    heir = {
        name = "Ramesuan"
        monarch_name = "Ramesuan"
        dynasty = "Suphannaphum"
        birth_date = 1330.1.1 # Actual unknown
        death_date = 1370.1.1
        claim = 95
        ADM = 1
        DIP = 3
        MIL = 3
    }
}

1369.1.1 = {
    monarch = {
        name = "Ramesuan"
        dynasty = "Uthong"
        ADM = 4
        DIP = 4
        MIL = 5    }
}
1370.1.1 = {
    monarch = {
        name = "Borommaracha I"
        dynasty = "Suphannaphum"
        ADM = 3
        DIP = 3
        MIL = 4    }
}
1388.1.1 = {
    monarch = {
        name = "Ramesuan"
        dynasty = "Uthong"
        ADM = 4
        DIP = 4
        MIL = 5    }
}
1395.1.1 = {
    monarch = {
        name = "Ramaracha"
        dynasty = "Uthong"
        ADM = 3
        DIP = 3
        MIL = 3
    }
    heir = {
        name = "Intha Racha"
        monarch_name = "Inthararatcha"
        dynasty = "Suphannaphum"
        birth_date = 1380.1.1 # Actual unknown
        death_date = 1424.1.1
        claim = 95
        ADM = 1
        DIP = 3
        MIL = 3
    }
}

1410.1.1 = {
    monarch = {
        name = "Intha Rratcha"
        dynasty = "Suphannaphum"
        ADM = 1
        DIP = 3
        MIL = 3
    }
    heir = {
        name = "Borommaracha"
        monarch_name = "Borommaracha II"
        dynasty = "Suphannaphum"
        birth_date = 1408.1.1 # Actual unknown
        death_date = 1448.1.1
        claim = 95
        ADM = 2
        DIP = 3
        MIL = 4
        leader = {
            name = "Boromoratcha"
            type = general
            rank = 0
            fire = 2
            shock = 4
            manuever = 3
            siege = 1
        }
    }
}

1424.1.1 = {
    monarch = {
        name = "Borommaracha II"
        dynasty = "Suphannaphum"
        ADM = 2
        DIP = 3
        MIL = 4
        leader = { name = "Boromoratcha II" type = general rank = 0 fire = 2 shock = 4 manuever = 3 siege = 1 }
    }
}

1431.1.1 = {
    heir = {
        name = "Trailokanat"
        monarch_name = "Trailokanat"
        dynasty = "Suphannaphum"
        birth_date = 1431.1.1
        death_date = 1488.1.1
        claim = 95
        ADM = 6
        DIP = 3
        MIL = 3
    }
}

1448.1.1 = {
    monarch = {
        name = "Trailokanat"
        dynasty = "Suphannaphum"
        ADM = 6
        DIP = 3
        MIL = 3
    }
}

1470.1.1 = {
    heir = {
        name = "Borommaracha"
        monarch_name = "Borommaracha III"
        dynasty = "Suphannaphum"
        claim = 95
        birth_date = 1450.1.1
        death_date = 1491.1.1
        ADM = 2
        DIP = 4
        MIL = 1
    }
}

1488.1.1 = {
    monarch = {
        name = "Borommaracha III"
        dynasty = "Suphannaphum"
        ADM = 2
        DIP = 4
        MIL = 1
    }
    heir = {
        name = "Ramathibodi"
        monarch_name = "Ramathibodi II"
        dynasty = "Suphannaphum"
        birth_date = 1473.1.1
        death_date = 1529.7.1
        claim = 95
        ADM = 3
        DIP = 2
        MIL = 2
        leader = { name = "Ramathibodi" type = general rank = 0 fire = 1 shock = 3 manuever = 4 siege = 0 }
    }
}

1491.1.1 = {
    monarch = {
        name = "Ramathibodi II"
        dynasty = "Suphannaphum"
        ADM = 3
        DIP = 2
        MIL = 2
        leader = { name = "Ramathibodi II" type = general rank = 0 fire = 1 shock = 3 manuever = 4 siege = 0 }
    }
}

1510.1.1 = {
    heir = {
        name = "Atitayawongse"
        monarch_name = "Borommaracha IV"
        dynasty = "Suphannaphum"
        birth_date = 1510.1.1
        death_date = 1534.1.1
        claim = 95
        ADM = 3
        DIP = 3
        MIL = 2
    }
}

1529.7.1 = {
    monarch = {
        name = "Borommaracha IV"
        dynasty = "Suphannaphum"
        ADM = 3
        DIP = 3
        MIL = 2
    }
    heir = {
        name = "Ratsada"
        monarch_name = "Ratsada"
        dynasty = "Suphannaphum"
        birth_date = 1528.1.1
        death_date = 1535.1.1
        claim = 95
        ADM = 4
        DIP = 6
        MIL = 4
    }
}

1534.1.1 = {
    monarch = {
        name = "Ratsada"
        dynasty = "Suphannaphum"
        ADM = 4
        DIP = 6
        MIL = 4
    }
}

1535.1.1 = {
    monarch = {
        name = "Chairacha"
        dynasty = "Suphannaphum"
        ADM = 3
        DIP = 2
        MIL = 4
    }
    heir = {
        name = "Keo Fa"
        monarch_name = "Keo Fa"
        dynasty = "Suphannaphum"
        birth_date = 1520.1.1
        death_date = 1548.11.12
        claim = 95
        ADM = 1
        DIP = 2
        MIL = 2
    }
}

1546.6.1 = {
    monarch = {
        name = "Keo Fa"
        dynasty = "Suphannaphum"
        ADM = 1
        DIP = 2
        MIL = 2
    }
}

1548.11.12 = {
    monarch = {
        name = "Worawongsa"
        dynasty = "Suphannaphum"
        ADM = 3
        DIP = 2
        MIL = 3
    }
}

1549.1.20 = {
    monarch = {
        name = "Maha Chakkraphat"
        dynasty = "Suphannaphum"
        ADM = 2
        DIP = 2
        MIL = 1
    }
    heir = {
        name = "Mahin"
        monarch_name = "Mahin"
        dynasty = "Suphannaphum"
        birth_date = 1539.1.1
        death_date = 1569.11.1
        claim = 95
        ADM = 1
        DIP = 2
        MIL = 1
    }
}

1569.1.1 = {
    monarch = {
        name = "Mahin"
        dynasty = "Suphannaphum"
        ADM = 1
        DIP = 2
        MIL = 1
    }
}

1569.11.1 = {
    monarch = {
        name = "Maha Thammaracha"
        dynasty = "Suhkothai"
        ADM = 1
        DIP = 1
        MIL = 1
    }
    heir = {
        name = "Naresuan"
        monarch_name = "Naresuan"
        dynasty = "Suhkothai"
        birth_date = 1555.4.25
        death_date = 1605.4.7
        claim = 95
        ADM = 5
        DIP = 4
        MIL = 6
        leader = { name = "Naresuen" type = general rank = 0 fire = 2 shock = 3    manuever = 4 siege = 1 }
    }
}

1590.7.1 = {
    monarch = {
        name = "Naresuan"
        dynasty = "Suhkothai"
        ADM = 5
        DIP = 4
        MIL = 6
        leader = { name = "Naresuen" type = general rank = 0 fire = 2 shock = 3    manuever = 4 siege = 1 }
    }
    heir = {
        name = "Ekathotsarot"
        monarch_name = "Ekat'otsarat"
        dynasty = "Suhkothai"
        birth_date = 1556.1.1
        death_date = 1620.1.1
        claim = 95
        ADM = 3
        DIP = 2
        MIL = 2
    }
}

1605.5.17 = {
    monarch = {
        name = "Ekathotsarot"
        dynasty = "Suhkothai"
        ADM = 3
        DIP = 2
        MIL = 2
    }
    heir = {
        name = "Songtham"
        monarch_name = "Songtham"
        dynasty = "Suhkothai"
        birth_date = 1590.1.1
        death_date = 1628.12.23
        claim = 95
        ADM = 5
        DIP = 2
        MIL = 1
    }
}

1620.1.1 = {
    monarch = {
        name = "Songtham"
        dynasty = "Suhkothai"
        ADM = 5
        DIP = 2
        MIL = 1
    }
    heir = {
        name = "Chettha"
        monarch_name = "Chettha"
        dynasty = "Suhkothai"
        birth_date = 1613.1.1
        death_date = 1629.8.1
        claim = 95
        ADM = 1
        DIP = 3
        MIL = 2
    }
}

1628.12.23 = {
    monarch = {
        name = "Chettha"
        dynasty = "Suhkothai"
        ADM = 1
        DIP = 3
        MIL = 2
    }
    heir = {
        name = "Athittayawong"
        monarch_name = "Athittayawong"
        dynasty = "Suhkothai"
        birth_date = 1618.1.1
        death_date = 1629.9.1
        claim = 95
        ADM = 1
        DIP = 1
        MIL = 1
    }
}

1629.8.1 = {
    monarch = {
        name = "Athittayawong"
        dynasty = "Suhkothai"
        ADM = 1
        DIP = 1
        MIL = 1
    }
}

1629.9.1 = {
    monarch = {
        name = "Prasat Thong"
        dynasty = "Prasat Thong"
        ADM = 1
        DIP = 1
        MIL = 4
    }
    heir = {
        name = "Chao Fa Chai"
        monarch_name = "Chao Fa chai"
        dynasty = "Prasat Thong"
        birth_date = 1610.1.1
        death_date = 1688.7.11
        claim = 95
        ADM = 3
        DIP = 2
        MIL = 2
        leader = { name = "Narai" type = general rank = 0 fire = 2 shock = 2 manuever = 2 siege = 0 }
    }
}

1656.8.8 = {
    monarch = {
        name = "Chao Fa Chai"
        dynasty = "Prasat Thong"
        ADM = 3
        DIP = 2
        MIL = 2
        leader = { name = "Narai" type = general rank = 0 fire = 2 shock = 2 manuever = 2 siege = 0 }
    }
}

1656.8.9 = {
    monarch = {
        name = "Sri Suthammaracha"
        dynasty = "Prasat Thong"
        ADM = 1
        DIP = 3
        MIL = 1
    }
}

1656.10.27 = {
    monarch = {
        name = "Narai"
        dynasty = "Prasat Thong"
        ADM = 4
        DIP = 6
        MIL = 4
    }
    heir = {
        name = "Phetracha"
        monarch_name = "Phetracha"
        dynasty = "Ban Phlu Luang"
        birth_date = 1632.1.1
        death_date = 1703.2.1
        claim = 95
        ADM = 4
        DIP = 5
        MIL = 5
    }
}

1688.7.12 = {
    monarch = {
        name = "Phetracha"
        dynasty = "Ban Phlu Luang"
        ADM = 4
        DIP = 5
        MIL = 5
    }
    heir = {
        name = "Prachao Sua"
        monarch_name = "Prachao Sua"
        dynasty = "Ban Phlu Luang"
        birth_date = 1660.1.1 # Actual unknown
        death_date = 1709.1.1
        claim = 95
        ADM = 1
        DIP = 1
        MIL = 2
    }
}

1703.2.1 = {
    monarch = {
        name = "Prachao Sua"
        dynasty = "Ban Phlu Luang"
        ADM = 1
        DIP = 1
        MIL = 2
    }
    heir = {
        name = "Thai Sa"
        monarch_name = "Thai Sa"
        dynasty = "Ban Phlu Luang"
        birth_date = 1680.1.1
        death_date = 1733.1.1
        claim = 95
        ADM = 2
        DIP = 2
        MIL = 2
    }
}

1709.1.1 = {
    monarch = {
        name = "Thai Sa"
        dynasty = "Ban Phlu Luang"
        ADM = 2
        DIP = 2
        MIL = 2
    }
    heir = {
        name = "Borommakot"
        monarch_name = "Borommakot"
        dynasty = "Ban Phlu Luang"
        birth_date = 1700.1.1
        death_date = 1758.4.14
        claim = 95
        ADM = 3
        DIP = 4
        MIL = 2
    }
}

1733.1.1 = {
    monarch = {
        name = "Boromakot T'ammaraja II"
        dynasty = "Ban Phlu Luang"
        ADM = 3
        DIP = 4
        MIL = 2
    }
}

1758.4.14 = {
    monarch = {
        name = "Uthumphon"
        dynasty = "Ban Phlu Luang"
        ADM = 3
        DIP = 3
        MIL = 3
    }
}

1758.5.1 = {
    monarch = {
        name = "Ekathat"
        dynasty = "Ban Phlu Luang"
        ADM = 1
        DIP = 1
        MIL = 1
    }
}

1760.1.1 = { leader = {    name = "Ponney"    type = general rank = 3    fire = 4 shock = 3 manuever = 3    siege = 0 death_date = 1770.1.1 } }

1767.4.8 = {
    monarch = {
        name = "Taksin"
        dynasty = "Thonburi"
        ADM = 4
        DIP = 5
        MIL = 6
        leader = { name = "Taksin" type = general rank = 0 fire = 2 shock = 4 manuever = 4 siege = 0 }
    }
}

1782.4.8 = {
	monarch = {
		name = "Rama"
		dynasty = "Chakri"
		ADM = 6
		DIP = 3
		MIL = 5
		leader = {	name = "Rama"		type = general	rank = 0	fire = 2	shock = 4	manuever = 4	siege = 0 }
	}
	heir = {
		name = "Rama"
		monarch_name = "Rama II"
		dynasty = "Chakri"
		birth_Date = 1767.2.24
		death_date = 1824.7.21
		claim = 95
		ADM = 2
		DIP = 2
		MIL = 2
	}
}

1809.9.7 = {
	monarch = {
		name = "Rama II"
		dynasty = "Chakri"
		ADM = 5
		DIP = 3
		MIL = 1
	}
}

1824.7.21 = {
	monarch = {
		name = "Rama III"
		dynasty = "Chakri"
		ADM = 4
		DIP = 3
		MIL = 4
	}
}

1851.4.2 = {
	monarch = {
		name = "Rama IV"
		dynasty = "Chakri"
		ADM = 6
		DIP = 6
		MIL = 3
	}
}

1853.9.20 = {
	heir = {
		name = "Rama"
		monarch_name = "Rama V"
		dynasty = "Chakri"
		birth_Date = 1853.9.20
		death_date = 1910.10.23
		claim = 95
		ADM = 5
		DIP = 5
		MIL = 3
	}
}

1868.10.1 = {
	monarch = {
		name = "Rama V"
		dynasty = "Chakri"
		ADM = 6
		DIP = 6
		MIL = 3
	}
}
