# TKE - Tekke Beylik

government = ottoman_government government_rank = 1
mercantilism = 0.0
primary_culture = yorouk
religion = sunni
technology_group = muslim
capital = 325
historical_rival = BYZ
historical_neutral = MAM

1000.1.1  = {
	add_country_modifier = {
		name = "concubinage"
		duration = -1
	}
	add_country_modifier = { name = turkish_beylik duration = -1 }
	add_country_modifier = { name = obstacle_traditional_military duration = -1 }
	set_variable = { which = "centralization_decentralization" value = 0 }
}

1321.1.1 = {
	monarch = {
		name = "Yunus"
		dynasty = "Hamid"
		ADM = 3
		DIP = 3
		MIL = 3
	}
}

1391.1.1 = {
	monarch = {
		name = "Osman Celebi"
		dynasty = "Hamid"
		ADM = 3
		DIP = 3
		MIL = 3
	}
}

# 1423 - Fall to the Ottomans
